{
    "_id": "o1lhSKOpKPamTITI",
    "data": {
        "boosts": {
            "0": {
                "value": [
                    "int",
                    "wis"
                ]
            },
            "1": {
                "value": [
                    "cha",
                    "con",
                    "dex",
                    "int",
                    "str",
                    "wis"
                ]
            }
        },
        "description": {
            "value": "<p>You ran the numbers on a large farm, for a merchant's endeavors, or with a major guild in the city. You kept track of expenses, payroll, profits, and anything else that had to do with money, for better or worse. If better, you might be adventuring to learn how others ply this trade. If worse, you may be fleeing from impending consequences, in the hope that no one finds you.</p>\n<p>Choose two ability boosts. One must be to <strong>Intelligence</strong> or <strong>Wisdom</strong>, and one is a free ability boost.</p>\n<p>You're trained in the Society skill and the Accounting Lore skill. You gain the @Compendium[pf2e.feats-srd.Eye For Numbers]{Eye For Numbers} skill feat.</p>"
        },
        "items": {
            "re6l6": {
                "id": "0N8TtGSk5enoLBZ8",
                "img": "systems/pf2e/icons/features/feats/feats.webp",
                "level": "1",
                "name": "Eye For Numbers",
                "pack": "pf2e.feats-srd"
            }
        },
        "rules": [],
        "source": {
            "value": ""
        },
        "trainedLore": "Accounting Lore",
        "trainedSkills": {
            "value": [
                "soc"
            ]
        },
        "traits": {
            "custom": "",
            "rarity": {
                "value": "common"
            },
            "value": []
        }
    },
    "effects": [],
    "flags": {},
    "img": "systems/pf2e/icons/default-icons/background.svg",
    "name": "Bookkeeper",
    "type": "background"
}
