{
    "_id": "wz4fDeZtCvxC4vyO",
    "data": {
        "boosts": {
            "0": {
                "value": [
                    "dex",
                    "str"
                ]
            },
            "1": {
                "value": [
                    "cha",
                    "con",
                    "dex",
                    "int",
                    "str",
                    "wis"
                ]
            }
        },
        "description": {
            "value": "<p>You competed in the last Ruby Phoenix Tournament 10 years ago, though you didn't make it to the end. One wrong step, one mistimed punch, one blocked spell—whatever it was, that was all it took for your opponent to get the upper hand and knock you out of the tournament. Well, maybe it was a simple mistake or maybe you just weren't up to snuff, and you're too headstrong to admit it. Now, after training for a decade to ensure you don't repeat any of your prior mistakes, you've joined forces with a team of fellow fighters in order to maximize your odds of making it all the way to the finals. Whatever happened before, you've vowed to return to the ring in Goka for an epic rematch, and this time you're not walking out until you've been named Ruby Phoenix Champion.</p>\n<p>Choose two ability boosts. One must be to <strong>Dexterity</strong> or <strong>Strength</strong>, and one is a free ability boost.</p>\n<p>You're trained in Acrobatics and the Gladiatorial Lore skill. You gain the @Compendium[pf2e.feats-srd.Cat Fall]{Cat Fall} skill feat</p>"
        },
        "items": {
            "br2az": {
                "id": "LQw0yIMDUJJkq1nD",
                "img": "systems/pf2e/icons/features/feats/feats.webp",
                "level": 1,
                "name": "Cat Fall",
                "pack": "pf2e.feats-srd"
            }
        },
        "rules": [],
        "source": {
            "value": ""
        },
        "trainedLore": "Gladiatorial",
        "trainedSkills": {
            "value": [
                "acr"
            ]
        },
        "traits": {
            "custom": "",
            "rarity": {
                "value": "uncommon"
            },
            "value": []
        }
    },
    "effects": [],
    "flags": {},
    "img": "systems/pf2e/icons/default-icons/background.svg",
    "name": "Second Chance Champion",
    "type": "background"
}
