{
    "_id": "ffEvUlA2AZOIXUej",
    "data": {
        "boosts": {
            "0": {
                "value": [
                    "con",
                    "wis"
                ]
            },
            "1": {
                "value": [
                    "cha",
                    "con",
                    "dex",
                    "int",
                    "str",
                    "wis"
                ]
            }
        },
        "description": {
            "value": "<p>From rivers that <em>@Compendium[pf2e.spells-srd.Charm]{Charm}</em> all who come near to forests that speak through <em>@Compendium[pf2e.spells-srd.Dream Message]{Dream Messages}</em>, you have seen and studied many kinds of magical terrain. The world is so rich in magic that it can affect the land itself, and you have traveled extensively to learn the ways of identifying the oddities of magical terrain wherever it arises.</p>\n<p>Choose two ability boosts. One must be <strong>Constitution</strong> or <strong>Wisdom</strong> and one is a free ability boost.</p>\n<p>You're trained in Nature and the Magical Terrain Lore skill. You gain the @Compendium[pf2e.feats-srd.Terrain Expertise]{Terrain Expertise} skill feat.</p>"
        },
        "items": {
            "kmtpe": {
                "id": "4tTkRyOQ0VuRBac3",
                "img": "systems/pf2e/icons/features/feats/feats.webp",
                "level": 1,
                "name": "Terrain Expertise",
                "pack": "pf2e.feats-srd"
            }
        },
        "rules": [],
        "source": {
            "value": ""
        },
        "trainedLore": "Magical Terrain Lore",
        "trainedSkills": {
            "custom": "",
            "value": [
                "nat"
            ]
        },
        "traits": {
            "custom": "",
            "rarity": {
                "value": "rare"
            },
            "value": []
        }
    },
    "effects": [],
    "flags": {},
    "img": "systems/pf2e/icons/default-icons/background.svg",
    "name": "Surge Investigator (Nature)",
    "type": "background"
}
