{
    "_id": "vp2q2h2KoVjRs8nL",
    "data": {
        "baseItem": null,
        "brokenThreshold": {
            "value": 0
        },
        "bulkCapacity": {
            "value": ""
        },
        "collapsed": {
            "value": false
        },
        "containerId": {
            "value": null
        },
        "description": {
            "value": "<p>When you invest this medallion for your eidolon, it changes shape to appear as a tiny bejeweled facsimile of the eidolon, magically attached just over your eidolon's heart. While your eidolon wears the medallion, they gain a +2 item bonus to Athletics checks to Shove or Trip.</p>\n<hr />\n<p><strong>Activate</strong> <span class=\"pf2-icon\">2</span> envision;</p>\n<p><strong>Frequency</strong> once per day;</p>\n<p><strong>Effect</strong> Your eidolon Concentrates on the medallion and their connection to you, allowing them to momentarily manifest into a stampede of dozens of copies of themself. The stampede rampages out in every direction, swerving around your allies while trampling any foe on the ground in an emanation around your eidolon with a radius equal to your eidolon's Speed. Each of these foes takes [[/r 12d6 #bludgeoning]]{12d6 bludgeoning damage}, with a <span data-pf2-check=\"reflex\" data-pf2-traits=\"eidolon,evocation,invested,magical\" data-pf2-label=\"Eidolon Stampede DC\" data-pf2-dc=\"34\" data-pf2-show-dc=\"gm\">basic Reflex</span> save. On a critical failure, the foe is also knocked @Compendium[pf2e.conditionitems.Prone]{Prone}. After dealing damage, the stampede of eidolons vanishes as quickly as it appeared.</p>"
        },
        "equipped": {
            "value": false
        },
        "equippedBulk": {
            "value": ""
        },
        "hardness": {
            "value": 0
        },
        "hp": {
            "value": 0
        },
        "identification": {
            "misidentified": {},
            "status": "identified",
            "unidentified": {
                "data": {
                    "description": {
                        "value": ""
                    }
                },
                "img": "systems/pf2e/icons/unidentified_item_icons/adventuring_gear.webp",
                "name": "Unusual Object"
            }
        },
        "invested": {
            "value": null
        },
        "level": {
            "value": 15
        },
        "maxHp": {
            "value": 0
        },
        "negateBulk": {
            "value": "0"
        },
        "preciousMaterial": {
            "value": null
        },
        "preciousMaterialGrade": {
            "value": null
        },
        "price": {
            "value": "6200 gp"
        },
        "quantity": {
            "value": 1
        },
        "rules": [
            {
                "key": "FlatModifier",
                "predicate": {
                    "any": [
                        "action:shove",
                        "action:trip"
                    ]
                },
                "selector": "athletics",
                "type": "item",
                "value": 2
            }
        ],
        "size": {
            "value": "med"
        },
        "source": {
            "value": ""
        },
        "stackGroup": {
            "value": ""
        },
        "traits": {
            "custom": "",
            "rarity": {
                "value": "common"
            },
            "usage": {
                "value": "worn"
            },
            "value": [
                "eidolon",
                "evocation",
                "invested",
                "magical"
            ]
        },
        "usage": {
            "value": ""
        },
        "weight": {
            "value": "L"
        }
    },
    "effects": [],
    "flags": {},
    "img": "systems/pf2e/icons/default-icons/equipment.svg",
    "name": "Greater Stampede Medallion",
    "type": "equipment"
}
