{
    "_id": "8GEsRsQAdDljRT1s",
    "data": {
        "activation": {
            "condition": "",
            "cost": 0,
            "type": ""
        },
        "autoDestroy": {
            "_deprecated": true,
            "value": true
        },
        "autoUse": {
            "_deprecated": true,
            "value": true
        },
        "baseItem": null,
        "brokenThreshold": {
            "value": 0
        },
        "bulkCapacity": {
            "value": ""
        },
        "charges": {
            "_deprecated": true,
            "max": "1",
            "value": "1"
        },
        "collapsed": {
            "value": false
        },
        "consumableType": {
            "value": "poison"
        },
        "consume": {
            "_deprecated": true,
            "value": null
        },
        "containerId": {
            "value": ""
        },
        "description": {
            "value": "<p><strong>Activate</strong> <span class=\"pf2-icon\">1</span> Interact;</p>\n<p>Rendered from the fat of corporeal undead creatures and infused with ghoulish magic, this yellowish oil causes its victims to experience stabbing hunger pangs that only living flesh can abate. If you eat at least a mouthful of humanoid flesh, you ignore the @Compendium[pf2e.conditionitems.Enfeebled]{Enfeebled} condition from hunger oil for 1 minute. While under the effect of hunger oil, you regain only half as many Hit Points from healing effects unless you've eaten at least a mouthful of humanoid flesh in the last minute.</p>\n<hr />\n<p><strong>Saving Throw</strong> <span data-pf2-check=\"fortitude\" data-pf2-dc=\"30\" data-pf2-traits=\"contact,divine,poison\" data-pf2-label=\"Hunger Oil DC\" data-pf2-show-dc=\"gm\">Fortitude</span>;</p>\n<p><strong>Onset</strong> 1 minute;</p>\n<p><strong>Maximum Duration</strong> 6 minutes;</p>\n<p><strong>Stage 1</strong> enfeebled 2 (1 minute);</p>\n<p><strong>Stage 2</strong> enfeebled 3 (1 minute);</p>\n<p><strong>Stage 3</strong> enfeebled 4 ([[/br 1d4 #minutes]]{1d4 minutes})</p>\n<hr />\n<p><strong>Craft Requirements</strong> Supply one casting of @Compendium[pf2e.spells-srd.Ghoulish Cravings]{Ghoulish Cravings}.</p>"
        },
        "duration": {
            "units": "",
            "value": null
        },
        "equipped": {
            "value": false
        },
        "equippedBulk": {
            "value": ""
        },
        "hardness": {
            "value": 0
        },
        "hp": {
            "value": 0
        },
        "identification": {
            "misidentified": {},
            "status": "identified",
            "unidentified": {
                "data": {
                    "description": {
                        "value": ""
                    }
                },
                "img": "",
                "name": ""
            }
        },
        "level": {
            "value": 11
        },
        "maxHp": {
            "value": 0
        },
        "negateBulk": {
            "value": "0"
        },
        "preciousMaterial": {
            "value": ""
        },
        "preciousMaterialGrade": {
            "value": ""
        },
        "price": {
            "value": "235 gp"
        },
        "quantity": {
            "value": 1
        },
        "range": {
            "long": null,
            "units": "",
            "value": null
        },
        "rules": [],
        "size": {
            "value": "med"
        },
        "source": {
            "value": ""
        },
        "spell": {
            "data": null,
            "heightenedLevel": null
        },
        "stackGroup": {
            "value": ""
        },
        "target": {
            "type": "",
            "units": "",
            "value": null
        },
        "traits": {
            "custom": "",
            "rarity": {
                "value": "uncommon"
            },
            "usage": {
                "value": "held-in-two-hands"
            },
            "value": [
                "consumable",
                "contact",
                "divine",
                "poison"
            ]
        },
        "usage": {
            "value": "held-in-one-hand"
        },
        "uses": {
            "autoDestroy": true,
            "autoUse": true,
            "max": 0,
            "per": null,
            "value": 0
        },
        "weight": {
            "value": "-"
        }
    },
    "effects": [],
    "flags": {},
    "img": "systems/pf2e/icons/equipment/alchemical-items/alchemical-poisons/hunger-oil.webp",
    "name": "Hunger Oil",
    "type": "consumable"
}
