{
    "_id": "Fq61XZxfgsn4ZDXf",
    "data": {
        "baseItem": null,
        "brokenThreshold": {
            "value": 0
        },
        "bulkCapacity": {
            "value": ""
        },
        "collapsed": {
            "value": false
        },
        "containerId": {
            "value": ""
        },
        "description": {
            "value": "<p>These sturdy, average manacles are connected by a thick iron chain that is much heavier than its appearance suggests at a glance. Followers of Zon-Kuthon sometimes employ manacles of persuasion against captured enemies and spies. When the manacles are locked around an immobilized creature's wrists, they begin to sap the life out of the victim, dealing 2 negative damage per hour until the creature falls unconscious. The effect is nonlethal, so the damage doesn't cause the creature to become dying. While the creature is unconscious, the manacles deal no damage and allow the creature to recover Hit Points normally to a maximum of 10 Hit Points, at which point the manacles begin to deal damage once more. The manacles have no effect on a creature that is not immobilized.</p>"
        },
        "equipped": {
            "value": false
        },
        "equippedBulk": {
            "value": ""
        },
        "hardness": {
            "value": 0
        },
        "hp": {
            "value": 0
        },
        "identification": {
            "misidentified": {},
            "status": "identified",
            "unidentified": {
                "data": {
                    "description": {
                        "value": ""
                    }
                },
                "img": "",
                "name": ""
            }
        },
        "invested": {
            "value": false
        },
        "level": {
            "value": 3
        },
        "maxHp": {
            "value": 0
        },
        "negateBulk": {
            "value": ""
        },
        "preciousMaterial": {
            "value": ""
        },
        "preciousMaterialGrade": {
            "value": ""
        },
        "price": {
            "value": "45 gp"
        },
        "quantity": {
            "value": 1
        },
        "rules": [],
        "size": {
            "value": "med"
        },
        "source": {
            "value": ""
        },
        "stackGroup": {
            "value": ""
        },
        "traits": {
            "custom": "",
            "rarity": {
                "value": "uncommon"
            },
            "usage": {
                "value": "held-in-one-hand"
            },
            "value": [
                "magical",
                "necromancy",
                "nonlethal"
            ]
        },
        "usage": {
            "value": "held-in-one-hand"
        },
        "weight": {
            "value": "1"
        }
    },
    "effects": [],
    "flags": {},
    "img": "systems/pf2e/icons/equipment/worn-items/other-worn-items/manacles-of-persuasion.webp",
    "name": "Manacles of Persuasion",
    "type": "equipment"
}
