{
    "_id": "Ld8duhvwTQ5lCQmF",
    "data": {
        "baseItem": null,
        "brokenThreshold": {
            "value": 0
        },
        "bulkCapacity": {
            "value": ""
        },
        "collapsed": {
            "value": false
        },
        "containerId": {
            "value": ""
        },
        "description": {
            "value": "<p>Silver weapons are a bane to creatures ranging from devils to werewolves. Silver items are less durable than steel items, and low-grade silver items are usually merely silver-plated.</p><h2>Silver Items</h2>\n<table style=\"width: 380px; user-select: text; color: #191813; font-size: 13px; height: 314px;\" border=\"1\">\n<tbody style=\"box-sizing: border-box; user-select: text;\">\n<tr style=\"box-sizing: border-box; user-select: text; height: 17px;\">\n<td style=\"box-sizing: border-box; user-select: text; color: white; height: 32px; width: 219px; background-color: #522e2c; text-align: center;\">\n<h3><strong>Silver Items</strong></h3>\n</td>\n<td style=\"box-sizing: border-box; user-select: text; color: white; width: 74px; text-align: center; background-color: #522e2c; height: 32px;\">\n<h3><strong style=\"box-sizing: border-box; user-select: text;\"><strong>Hardness</strong></strong> </h3>\n</td>\n<td style=\"box-sizing: border-box; user-select: text; color: white; width: 41px; text-align: center; background-color: #522e2c; height: 32px;\">\n<h3>HP</h3>\n</td>\n<td style=\"box-sizing: border-box; user-select: text; color: white; width: 45px; text-align: center; background-color: #522e2c; height: 32px;\">\n<h3>BT</h3>\n</td>\n</tr>\n<tr style=\"box-sizing: border-box; user-select: text; height: 17px;\">\n<td style=\"box-sizing: border-box; user-select: text; height: 25px; width: 219px; text-align: center; background-color: #f6f1e1;\"><strong>Thin Items</strong></td>\n<td style=\"box-sizing: border-box; user-select: text; width: 74px; text-align: center; background-color: #f6f1e1; height: 25px;\"> </td>\n<td style=\"box-sizing: border-box; user-select: text; width: 41px; text-align: center; background-color: #f6f1e1; height: 25px;\"> </td>\n<td style=\"box-sizing: border-box; user-select: text; width: 45px; text-align: center; background-color: #f6f1e1; height: 25px;\"> </td>\n</tr>\n<tr style=\"box-sizing: border-box; user-select: text; height: 17px;\">\n<td style=\"box-sizing: border-box; user-select: text; height: 25px; width: 219px; background-color: #eee5c8; text-align: center;\">Low-grade</td>\n<td style=\"box-sizing: border-box; user-select: text; width: 74px; text-align: center; background-color: #eee5c8; height: 25px;\">3<span id=\"ctl00_MainContent_DetailedOutput\" style=\"box-sizing: border-box; user-select: text; display: block;\"></span></td>\n<td style=\"box-sizing: border-box; user-select: text; width: 41px; text-align: center; background-color: #eee5c8; height: 25px;\">12</td>\n<td style=\"box-sizing: border-box; user-select: text; width: 45px; text-align: center; background-color: #eee5c8; height: 25px;\">6</td>\n</tr>\n<tr style=\"box-sizing: border-box; user-select: text; height: 17px;\">\n<td style=\"box-sizing: border-box; user-select: text; height: 25px; width: 219px; text-align: center; background-color: #f6f1e1;\">Standard-grade</td>\n<td style=\"box-sizing: border-box; user-select: text; width: 74px; text-align: center; background-color: #f6f1e1; height: 25px;\">5</td>\n<td style=\"box-sizing: border-box; user-select: text; width: 41px; text-align: center; background-color: #f6f1e1; height: 25px;\">20</td>\n<td style=\"box-sizing: border-box; user-select: text; width: 45px; text-align: center; background-color: #f6f1e1; height: 25px;\">10</td>\n</tr>\n<tr style=\"height: 19px;\">\n<td style=\"box-sizing: border-box; user-select: text; width: 219px; text-align: center; background-color: #eee5c8; height: 25px;\">High-grade</td>\n<td style=\"box-sizing: border-box; user-select: text; width: 74px; text-align: center; background-color: #eee5c8; height: 25px;\">8</td>\n<td style=\"box-sizing: border-box; user-select: text; width: 41px; text-align: center; background-color: #eee5c8; height: 25px;\">32</td>\n<td style=\"box-sizing: border-box; user-select: text; width: 45px; text-align: center; background-color: #eee5c8; height: 25px;\">16</td>\n</tr>\n<tr style=\"box-sizing: border-box; user-select: text; height: 19px;\">\n<td style=\"box-sizing: border-box; user-select: text; height: 25px; width: 219px; text-align: center; background-color: #f6f1e1;\"><strong>Items</strong></td>\n<td style=\"box-sizing: border-box; user-select: text; width: 74px; text-align: center; background-color: #f6f1e1; height: 25px;\"> </td>\n<td style=\"box-sizing: border-box; user-select: text; width: 41px; text-align: center; background-color: #f6f1e1; height: 25px;\"> </td>\n<td style=\"box-sizing: border-box; user-select: text; width: 45px; text-align: center; background-color: #f6f1e1; height: 25px;\"> </td>\n</tr>\n<tr style=\"height: 19px;\">\n<td style=\"box-sizing: border-box; user-select: text; width: 219px; text-align: center; background-color: #eee5c8; height: 25px;\">Low-grade<strong><br /></strong></td>\n<td style=\"box-sizing: border-box; user-select: text; width: 74px; text-align: center; background-color: #eee5c8; height: 25px;\">5</td>\n<td style=\"box-sizing: border-box; user-select: text; width: 41px; text-align: center; background-color: #eee5c8; height: 25px;\">20</td>\n<td style=\"box-sizing: border-box; user-select: text; width: 45px; text-align: center; background-color: #eee5c8; height: 25px;\">10</td>\n</tr>\n<tr style=\"height: 19px;\">\n<td style=\"box-sizing: border-box; user-select: text; width: 219px; text-align: center; background-color: #f6f1e1; height: 25px;\">Standard-grade<strong><br /></strong></td>\n<td style=\"box-sizing: border-box; user-select: text; width: 74px; text-align: center; background-color: #f6f1e1; height: 25px;\">7</td>\n<td style=\"box-sizing: border-box; user-select: text; width: 41px; text-align: center; background-color: #f6f1e1; height: 25px;\">28</td>\n<td style=\"box-sizing: border-box; user-select: text; width: 45px; text-align: center; background-color: #f6f1e1; height: 25px;\">14</td>\n</tr>\n<tr style=\"height: 19px;\">\n<td style=\"box-sizing: border-box; user-select: text; width: 219px; text-align: center; background-color: #eee5c8; height: 25px;\">High-grade</td>\n<td style=\"box-sizing: border-box; user-select: text; width: 74px; text-align: center; background-color: #eee5c8; height: 25px;\">10</td>\n<td style=\"box-sizing: border-box; user-select: text; width: 41px; text-align: center; background-color: #eee5c8; height: 25px;\">40</td>\n<td style=\"box-sizing: border-box; user-select: text; width: 45px; text-align: center; background-color: #eee5c8; height: 25px;\">20</td>\n</tr>\n<tr style=\"height: 19px;\">\n<td style=\"box-sizing: border-box; user-select: text; width: 219px; text-align: center; background-color: #f6f1e1; height: 25px;\"><strong>Structure</strong></td>\n<td style=\"box-sizing: border-box; user-select: text; width: 74px; text-align: center; background-color: #f6f1e1; height: 25px;\"> </td>\n<td style=\"box-sizing: border-box; user-select: text; width: 41px; text-align: center; background-color: #f6f1e1; height: 25px;\"> </td>\n<td style=\"box-sizing: border-box; user-select: text; width: 45px; text-align: center; background-color: #f6f1e1; height: 25px;\"> </td>\n</tr>\n<tr style=\"height: 19px;\">\n<td style=\"box-sizing: border-box; user-select: text; width: 219px; text-align: center; background-color: #eee5c8; height: 25px;\">Low-grade<strong><br /></strong></td>\n<td style=\"box-sizing: border-box; user-select: text; width: 74px; text-align: center; background-color: #eee5c8; height: 25px;\">10</td>\n<td style=\"box-sizing: border-box; user-select: text; width: 41px; text-align: center; background-color: #eee5c8; height: 25px;\">40</td>\n<td style=\"box-sizing: border-box; user-select: text; width: 45px; text-align: center; background-color: #eee5c8; height: 25px;\">20</td>\n</tr>\n<tr style=\"height: 19px;\">\n<td style=\"box-sizing: border-box; user-select: text; width: 219px; text-align: center; background-color: #f6f1e1; height: 25px;\">Standard-grade<strong><br /></strong></td>\n<td style=\"box-sizing: border-box; user-select: text; width: 74px; text-align: center; background-color: #f6f1e1; height: 25px;\">14</td>\n<td style=\"box-sizing: border-box; user-select: text; width: 41px; text-align: center; background-color: #f6f1e1; height: 25px;\">56</td>\n<td style=\"box-sizing: border-box; user-select: text; width: 45px; text-align: center; background-color: #f6f1e1; height: 25px;\">28</td>\n</tr>\n<tr style=\"height: 19px;\">\n<td style=\"box-sizing: border-box; user-select: text; width: 219px; text-align: center; background-color: #eee5c8; height: 25px;\">High-grade</td>\n<td style=\"box-sizing: border-box; user-select: text; width: 74px; text-align: center; background-color: #eee5c8; height: 25px;\">20</td>\n<td style=\"box-sizing: border-box; user-select: text; width: 41px; text-align: center; background-color: #eee5c8; height: 25px;\">80</td>\n<td style=\"box-sizing: border-box; user-select: text; width: 45px; text-align: center; background-color: #eee5c8; height: 25px;\">40</td>\n</tr>\n</tbody>\n</table>"
        },
        "equipped": {
            "value": false
        },
        "equippedBulk": {
            "value": ""
        },
        "hardness": {
            "value": 0
        },
        "hp": {
            "value": 0
        },
        "identification": {
            "misidentified": {},
            "status": "identified",
            "unidentified": {
                "data": {
                    "description": {
                        "value": ""
                    }
                },
                "img": "",
                "name": ""
            }
        },
        "invested": {
            "value": false
        },
        "level": {
            "value": 0
        },
        "maxHp": {
            "value": 0
        },
        "negateBulk": {
            "value": "0"
        },
        "preciousMaterial": {
            "value": ""
        },
        "preciousMaterialGrade": {
            "value": ""
        },
        "price": {
            "value": "10 gp"
        },
        "quantity": {
            "value": 1
        },
        "rules": [],
        "size": {
            "value": "med"
        },
        "source": {
            "value": ""
        },
        "stackGroup": {
            "value": ""
        },
        "traits": {
            "custom": "",
            "rarity": {
                "value": "common"
            },
            "usage": {
                "value": "held-in-one-hand"
            },
            "value": [
                "precious"
            ]
        },
        "usage": {
            "value": "held-in-one-hand"
        },
        "weight": {
            "value": "L"
        }
    },
    "effects": [],
    "flags": {},
    "img": "systems/pf2e/icons/equipment/materials/silver-chunk.webp",
    "name": "Silver Chunk",
    "type": "equipment"
}
