{
    "_id": "fvijt2whssxJzxCF",
    "data": {
        "attributes": {
            "ac": {
                "value": 0
            },
            "hardness": 0,
            "hasHealth": true,
            "hp": {
                "details": "",
                "max": 10,
                "temp": 0,
                "value": 10
            },
            "stealth": {
                "details": "<p>DC 35 (expert) to realize the illusory images conceal a magical trap (noticing the images has a DC of 0)</p>",
                "value": 25
            }
        },
        "creatureType": "",
        "details": {
            "description": "<p>Psychically-enhanced illusions flood the minds of creatures in the 95-foot-long, 15-foot-wide hallway (the white dotted box on the map) with visions of their failures yet to come.</p>",
            "disable": "<p>DC 32 Occultism (master) or dispel magic (5th level; counteract DC 26) to weaken the images; three successes are required to disable the trap</p>",
            "isComplex": false,
            "level": {
                "value": 1
            },
            "reset": "<p>The trap resets immediately and can affect the same creature multiple times on the creature's turn.</p>",
            "routine": ""
        },
        "saves": {
            "fortitude": {
                "saveDetail": "",
                "value": 0
            },
            "reflex": {
                "saveDetail": "",
                "value": 0
            },
            "will": {
                "saveDetail": "",
                "value": 0
            }
        },
        "source": {
            "value": "Pathfinder #165: Eyes of Empty Death"
        },
        "statusEffects": [],
        "traits": {
            "ci": [],
            "di": {
                "custom": "",
                "selected": {},
                "value": []
            },
            "dr": [],
            "dv": [],
            "rarity": {
                "value": "common"
            },
            "size": {
                "value": "med"
            },
            "traits": {
                "custom": "",
                "value": [
                    "magical",
                    "trap"
                ]
            }
        }
    },
    "effects": [],
    "flags": {},
    "img": "systems/pf2e/icons/default-icons/hazard.svg",
    "items": [
        {
            "_id": "QcW3MprdYsKVeRT7",
            "data": {
                "actionCategory": {
                    "value": "offensive"
                },
                "actionType": {
                    "value": "free"
                },
                "actions": {
                    "value": null
                },
                "description": {
                    "value": "<p><strong>Trigger</strong> A creature ends a move action within the trap's area;</p>\n<p><strong>Effect</strong> The triggering creature takes [[/r 2d10+10 #mental]]{2d10+10 mental damage} (<span data-pf2-check=\"will\" data-pf2-dc=\"32\" data-pf2-traits=\"curse,emotion,enchantment,mental,damaging-effect\" data-pf2-label=\"Flood of Despair DC\" data-pf2-show-dc=\"gm\">basic Will</span> save) as it considers its future failures. A creature that takes damage hears a soft whisper offering, “Let me take something from you and I can stop the pain.” A creature who agrees loses access to a random class feat that isn't a prerequisite for another feat, and the creature doesn't take further damage from Flood of Despair. This effect lasts for 1 week and can be ended by effects that remove curses. The creature also immediately detects the secret door at the end of the hall, no matter how far away from the end of the hall they are.</p>"
                },
                "requirements": {
                    "value": ""
                },
                "rules": [],
                "slug": null,
                "source": {
                    "value": ""
                },
                "traits": {
                    "custom": "",
                    "rarity": {
                        "value": "common"
                    },
                    "value": [
                        "curse",
                        "emotion",
                        "enchantment",
                        "mental"
                    ]
                },
                "trigger": {
                    "value": ""
                },
                "weapon": {
                    "value": ""
                }
            },
            "effects": [],
            "flags": {},
            "img": "systems/pf2e/icons/actions/FreeAction.webp",
            "name": "Flood of Despair",
            "sort": 100000,
            "type": "action"
        }
    ],
    "name": "Images of Powerlessness",
    "token": {
        "disposition": 0,
        "height": 1,
        "img": "systems/pf2e/icons/default-icons/hazard.svg",
        "name": "Images of Powerlessness",
        "width": 1
    },
    "type": "hazard"
}
