{
    "_id": "CXCdPqMRX58sBQ9G",
    "data": {
        "abilities": {
            "cha": {
                "mod": 3
            },
            "con": {
                "mod": 4
            },
            "dex": {
                "mod": 1
            },
            "int": {
                "mod": 2
            },
            "str": {
                "mod": 6
            },
            "wis": {
                "mod": 2
            }
        },
        "attributes": {
            "ac": {
                "details": "",
                "value": 27
            },
            "allSaves": {
                "value": null
            },
            "hp": {
                "details": "troop defenses",
                "max": 135,
                "temp": 0,
                "value": 135
            },
            "initiative": {
                "ability": "perception"
            },
            "perception": {
                "value": 16
            },
            "shield": {
                "ac": 2,
                "brokenThreshold": 0,
                "hardness": 0,
                "max": 0,
                "value": 0
            },
            "speed": {
                "otherSpeeds": [],
                "value": "40; troop movement"
            }
        },
        "details": {
            "alignment": {
                "value": "LN"
            },
            "creatureType": "",
            "flavorText": "<p>A cavalry brigade consists of several Hellknights and a single field-maralictor, in the distinctive armor of their order and bearing lances; the maralictor speaks for the brigade, questioning travelers the brigade encounters and barking orders.</p>\n<p>A Hellknight brigade is typically based at a keep or other fortification controlling an area measured by a day's ride in every direction-about 25 miles. Farther-ranging missions are possible but require substantial logistical support.</p>",
            "level": {
                "value": 8
            },
            "source": {
                "value": "Pathfinder Bestiary 3"
            }
        },
        "resources": {},
        "saves": {
            "fortitude": {
                "saveDetail": "",
                "value": 18
            },
            "reflex": {
                "saveDetail": "",
                "value": 13
            },
            "will": {
                "saveDetail": "",
                "value": 16
            }
        },
        "traits": {
            "attitude": {
                "value": "hostile"
            },
            "ci": [],
            "di": {
                "custom": "",
                "value": []
            },
            "dr": [
                {
                    "exceptions": "",
                    "label": "Mental",
                    "type": "mental",
                    "value": 5
                },
                {
                    "exceptions": "",
                    "label": "Slashing",
                    "type": "slashing",
                    "value": 5
                }
            ],
            "dv": [
                {
                    "exceptions": "",
                    "label": "Area Damage",
                    "type": "area-damage",
                    "value": "10"
                },
                {
                    "exceptions": "",
                    "label": "Splash Damage",
                    "type": "splash-damage",
                    "value": "10"
                }
            ],
            "languages": {
                "custom": "",
                "selected": [],
                "value": [
                    "common",
                    "infernal"
                ]
            },
            "rarity": {
                "value": "common"
            },
            "senses": {
                "value": ""
            },
            "size": {
                "value": "grg"
            },
            "traits": {
                "custom": "",
                "value": [
                    "animal",
                    "human",
                    "humanoid",
                    "troop"
                ]
            }
        }
    },
    "effects": [],
    "flags": {},
    "img": "systems/pf2e/icons/default-icons/npc.svg",
    "items": [
        {
            "_id": "z8f4947Z1jwsWLZS",
            "data": {
                "actionCategory": {
                    "value": "interaction"
                },
                "actionType": {
                    "value": "action"
                },
                "actions": {
                    "value": 1
                },
                "description": {
                    "value": "<p>The troop chooses one of the squares it currently occupies and redistributes its squares to any configuration in which all squares are contiguous and within 15 feet of the chosen square. The troop can't share its space with other creatures.</p>"
                },
                "requirements": {
                    "value": ""
                },
                "rules": [],
                "slug": "form-up",
                "source": {
                    "value": ""
                },
                "traits": {
                    "custom": "",
                    "rarity": {
                        "value": "common"
                    },
                    "value": []
                },
                "trigger": {
                    "value": ""
                },
                "weapon": {
                    "value": ""
                }
            },
            "effects": [],
            "flags": {
                "core": {
                    "sourceId": "Compendium.pf2e.bestiary-ability-glossary-srd.OvqohW9YuahnFaiX"
                }
            },
            "img": "systems/pf2e/icons/actions/OneAction.webp",
            "name": "Form Up",
            "sort": 100000,
            "type": "action"
        },
        {
            "_id": "IHpgk7PJSrixvdGB",
            "data": {
                "actionCategory": {
                    "value": "defensive"
                },
                "actionType": {
                    "value": "passive"
                },
                "actions": {
                    "value": null
                },
                "description": {
                    "value": "<p><strong>Thresholds</strong> 90 (12 squares), 45 (8 squares);</p>\n<p>Troops are composed of many individuals, and over the course of enough attacks and downed comrades, troops shrink in size. Most troops start with 16 squares (4 by 4), and their Hit Points have two listed thresholds, typically the first is at 2/3 their maximum Hit Points and the second is at 1/3 their maximum Hit Points. Once the troop drops below the first threshold, it loses 4 squares, leaving 12 squares remaining, and the first threshold becomes the troop's new maximum Hit Points. Once the troop falls below the second threshold, it loses another 4 squares, leaving 8 squares remaining, and the second threshold becomes the troop's new maximum Hit Points. In order to restore its size and maximum Hit Points, a troop needs to spend downtime to use long-term treatment on casualties or recruit new members to replace the fallen. At 0 Hit Points, the troop is reduced down to 4 squares, which is too few to sustain the troop, so it disperses entirely, with the few remaining members surrendering, fleeing, or easily dispatched, depending on their nature.</p>\n<p>A damaging single-target effect, such as a Strike, can't force a troop to pass through more than one threshold at once. For instance, if a troop had 60 Hit Points, with thresholds at 40 and 20, a Strike for 50 damage would leave the troop at 21 Hit Points, just above the second threshold. A damaging area effect or multi-target effect can cross multiple thresholds at once and could potentially destroy the entire troop in one shot.</p>\n<p>Non-damaging effects with an area or that target all creatures in a certain proximity affect a troop normally if they affect the entire area occupied by the troop. If an effect has a smaller area or numbers of targets, it typically has no effect on the troop. However, if the effect can target at least four creatures or cover at least four squares in the troop, and if it would prevent its targets from acting, cause them to flee, or otherwise make them unable to function as part of the troop for a round or more, the troop loses loses a number of Hit Points equal to the amount required to bring it to the next threshold, removing 4 squares. If an effect would both deal damage and automatically cross a threshold due to incapacitating some of the creatures in the troop, apply the damage first. If the damage wasn't enough to cross a threshold on its own, then reduce the Hit Points to cross the threshold for the incapacitating effect.</p>"
                },
                "requirements": {
                    "value": ""
                },
                "rules": [],
                "slug": "troop-defenses",
                "source": {
                    "value": ""
                },
                "traits": {
                    "custom": "",
                    "rarity": {
                        "value": "common"
                    },
                    "value": []
                },
                "trigger": {
                    "value": ""
                },
                "weapon": {
                    "value": ""
                }
            },
            "effects": [],
            "flags": {
                "core": {
                    "sourceId": "Compendium.pf2e.bestiary-ability-glossary-srd.RJbI07QSiYp0SF9A"
                }
            },
            "img": "systems/pf2e/icons/default-icons/mystery-man.svg",
            "name": "Troop Defenses",
            "sort": 200000,
            "type": "action"
        },
        {
            "_id": "tAmUn1fmHBzAZrMX",
            "data": {
                "actionCategory": {
                    "value": "offensive"
                },
                "actionType": {
                    "value": "action"
                },
                "actions": {
                    "value": 2
                },
                "description": {
                    "value": "<p>The Hellknights draw or reload their longbows, then launch a ranged attack in the form of a volley. This volley is a 10-foot burst within 100 feet that deals [[/r 4d8 #piercing]]{4d8 piercing damage} (<span data-pf2-check=\"reflex\" data-pf2-dc=\"23\" data-pf2-traits=\"damaging-effect\" data-pf2-label=\"Arrow Volley DC\" data-pf2-show-dc=\"gm\">basic Reflex</span> save).</p>\n<p>When the troop is reduced to 8 or fewer squares, this area decreases to a 5-foot burst.</p>"
                },
                "requirements": {
                    "value": ""
                },
                "rules": [],
                "slug": null,
                "source": {
                    "value": ""
                },
                "traits": {
                    "custom": "",
                    "rarity": {
                        "value": "common"
                    },
                    "value": []
                },
                "trigger": {
                    "value": ""
                },
                "weapon": {
                    "value": ""
                }
            },
            "effects": [],
            "flags": {},
            "img": "systems/pf2e/icons/actions/TwoActions.webp",
            "name": "Arrow Volley",
            "sort": 300000,
            "type": "action"
        },
        {
            "_id": "89ujLImiUz00Zomc",
            "data": {
                "actionCategory": {
                    "value": "offensive"
                },
                "actionType": {
                    "value": "action"
                },
                "actions": {
                    "value": 3
                },
                "description": {
                    "value": "<p>The brigade Forms Up, then Strides twice with a +10-foot circumstance bonus to its Speed.</p>\n<p>If it moves at least 10 feet, the brigade deals [[/r 3d8+13 #piercing]]{3d8+13 piercing damage} (<span data-pf2-check=\"reflex\" data-pf2-dc=\"26\" data-pf2-traits=\"damaging-effect\" data-pf2-label=\"Lance Charge DC\" data-pf2-show-dc=\"gm\">basic Reflex</span> save) to each enemy within 10 feet of the brigade at the end of its movement.</p>"
                },
                "requirements": {
                    "value": ""
                },
                "rules": [],
                "slug": null,
                "source": {
                    "value": ""
                },
                "traits": {
                    "custom": "",
                    "rarity": {
                        "value": "common"
                    },
                    "value": []
                },
                "trigger": {
                    "value": ""
                },
                "weapon": {
                    "value": ""
                }
            },
            "effects": [],
            "flags": {},
            "img": "systems/pf2e/icons/actions/ThreeActions.webp",
            "name": "Lance Charge",
            "sort": 400000,
            "type": "action"
        },
        {
            "_id": "arx5pjwY2S5WLBAA",
            "data": {
                "actionCategory": {
                    "value": "offensive"
                },
                "actionType": {
                    "value": "passive"
                },
                "actions": {
                    "value": null
                },
                "description": {
                    "value": "<p>Effects that target only animals or only humanoids may not work on the cavalry brigade, subject to the GM's discretion.</p>"
                },
                "requirements": {
                    "value": ""
                },
                "rules": [],
                "slug": null,
                "source": {
                    "value": ""
                },
                "traits": {
                    "custom": "",
                    "rarity": {
                        "value": "common"
                    },
                    "value": []
                },
                "trigger": {
                    "value": ""
                },
                "weapon": {
                    "value": ""
                }
            },
            "effects": [],
            "flags": {},
            "img": "systems/pf2e/icons/actions/Passive.webp",
            "name": "Mounted Troop",
            "sort": 500000,
            "type": "action"
        },
        {
            "_id": "iKR8M3h9wCtVtDTe",
            "data": {
                "actionCategory": {
                    "value": "offensive"
                },
                "actionType": {
                    "value": "action"
                },
                "actions": {
                    "value": 1
                },
                "description": {
                    "value": "<p><span class=\"pf2-icon\">1</span> to <span class=\"pf2-icon\">3</span></p>\n<p><strong>Frequency</strong> once per round;</p>\n<p><strong>Effect</strong> The brigade engages in a coordinated melee attack against each enemy within 10 feet (<span data-pf2-check=\"reflex\" data-pf2-dc=\"23\" data-pf2-traits=\"damaging-effect\" data-pf2-label=\"Swing from the Saddle DC\" data-pf2-show-dc=\"gm\">basic Reflex</span> save). The damage depends on the number of actions.</p>\n<p><span class=\"pf2-icon\">1</span> [[/r 2d6 #slashing]]{2d6 slashing damage}</p>\n<p><span class=\"pf2-icon\">2</span> [[/r 2d6+10 #slashing]]{2d6+10 slashing damage}</p>\n<p><span class=\"pf2-icon\">3</span> [[/r 3d6+13 #slashing]]{3d6+13 slashing damage}</p>"
                },
                "requirements": {
                    "value": ""
                },
                "rules": [],
                "slug": null,
                "source": {
                    "value": ""
                },
                "traits": {
                    "custom": "",
                    "rarity": {
                        "value": "common"
                    },
                    "value": []
                },
                "trigger": {
                    "value": ""
                },
                "weapon": {
                    "value": ""
                }
            },
            "effects": [],
            "flags": {},
            "img": "systems/pf2e/icons/actions/OneAction.webp",
            "name": "Swing from the Saddle",
            "sort": 600000,
            "type": "action"
        },
        {
            "_id": "cuBDxCCJtk4iMr0A",
            "data": {
                "actionCategory": {
                    "value": "offensive"
                },
                "actionType": {
                    "value": "passive"
                },
                "actions": {
                    "value": null
                },
                "description": {
                    "value": "<p>While moving on land, the Hellknight cavalry brigade ignores the effects of non-magical difficult terrain.</p>"
                },
                "requirements": {
                    "value": ""
                },
                "rules": [],
                "slug": null,
                "source": {
                    "value": ""
                },
                "traits": {
                    "custom": "",
                    "rarity": {
                        "value": "common"
                    },
                    "value": []
                },
                "trigger": {
                    "value": ""
                },
                "weapon": {
                    "value": ""
                }
            },
            "effects": [],
            "flags": {},
            "img": "systems/pf2e/icons/actions/Passive.webp",
            "name": "Trailblazing Stride",
            "sort": 700000,
            "type": "action"
        },
        {
            "_id": "46fsaAZvo5Pu9usU",
            "data": {
                "actionCategory": {
                    "value": "offensive"
                },
                "actionType": {
                    "value": "passive"
                },
                "actions": {
                    "value": null
                },
                "description": {
                    "value": "<p>Whenever the cavalry brigade Strides, the brigade first Forms Up as a free action to condense into a 20-foot-by-20-foot area (minus any missing squares), then moves. This works just like a Gargantuan creature moving; for instance, if any square of the brigade enters difficult terrain, the extra movement cost applies to the whole brigade.</p>"
                },
                "requirements": {
                    "value": ""
                },
                "rules": [],
                "slug": null,
                "source": {
                    "value": ""
                },
                "traits": {
                    "custom": "",
                    "rarity": {
                        "value": "common"
                    },
                    "value": []
                },
                "trigger": {
                    "value": ""
                },
                "weapon": {
                    "value": ""
                }
            },
            "effects": [],
            "flags": {},
            "img": "systems/pf2e/icons/actions/Passive.webp",
            "name": "Troop Movement",
            "sort": 800000,
            "type": "action"
        },
        {
            "_id": "lBltlFnZ0D7BZq1T",
            "data": {
                "description": {
                    "value": ""
                },
                "item": {
                    "value": 0
                },
                "mod": {
                    "value": 13
                },
                "proficient": {
                    "value": 0
                },
                "rules": [],
                "slug": null,
                "source": {
                    "value": ""
                },
                "traits": {
                    "custom": "",
                    "rarity": {
                        "value": "common"
                    },
                    "value": []
                }
            },
            "effects": [],
            "flags": {},
            "img": "systems/pf2e/icons/default-icons/lore.svg",
            "name": "Acrobatics",
            "sort": 900000,
            "type": "lore"
        },
        {
            "_id": "lukFgohCIf0C4Uxf",
            "data": {
                "description": {
                    "value": ""
                },
                "item": {
                    "value": 0
                },
                "mod": {
                    "value": 18
                },
                "proficient": {
                    "value": 0
                },
                "rules": [],
                "slug": null,
                "source": {
                    "value": ""
                },
                "traits": {
                    "custom": "",
                    "rarity": {
                        "value": "common"
                    },
                    "value": []
                }
            },
            "effects": [],
            "flags": {},
            "img": "systems/pf2e/icons/default-icons/lore.svg",
            "name": "Athletics",
            "sort": 1000000,
            "type": "lore"
        },
        {
            "_id": "KJxwCEgKTrckplr8",
            "data": {
                "description": {
                    "value": ""
                },
                "item": {
                    "value": 0
                },
                "mod": {
                    "value": 12
                },
                "proficient": {
                    "value": 0
                },
                "rules": [],
                "slug": null,
                "source": {
                    "value": ""
                },
                "traits": {
                    "custom": "",
                    "rarity": {
                        "value": "common"
                    },
                    "value": []
                }
            },
            "effects": [],
            "flags": {},
            "img": "systems/pf2e/icons/default-icons/lore.svg",
            "name": "Hell Lore",
            "sort": 1100000,
            "type": "lore"
        },
        {
            "_id": "jn1Ay4CUKXarzB0v",
            "data": {
                "description": {
                    "value": ""
                },
                "item": {
                    "value": 0
                },
                "mod": {
                    "value": 17
                },
                "proficient": {
                    "value": 0
                },
                "rules": [],
                "slug": null,
                "source": {
                    "value": ""
                },
                "traits": {
                    "custom": "",
                    "rarity": {
                        "value": "common"
                    },
                    "value": []
                }
            },
            "effects": [],
            "flags": {},
            "img": "systems/pf2e/icons/default-icons/lore.svg",
            "name": "Intimidation",
            "sort": 1200000,
            "type": "lore"
        },
        {
            "_id": "wMFyjiOI8DDoF45v",
            "data": {
                "description": {
                    "value": ""
                },
                "item": {
                    "value": 0
                },
                "mod": {
                    "value": 12
                },
                "proficient": {
                    "value": 0
                },
                "rules": [],
                "slug": null,
                "source": {
                    "value": ""
                },
                "traits": {
                    "custom": "",
                    "rarity": {
                        "value": "common"
                    },
                    "value": []
                }
            },
            "effects": [],
            "flags": {},
            "img": "systems/pf2e/icons/default-icons/lore.svg",
            "name": "Religion",
            "sort": 1300000,
            "type": "lore"
        },
        {
            "_id": "FO1mNEMoMyspIzFN",
            "data": {
                "description": {
                    "value": ""
                },
                "item": {
                    "value": 0
                },
                "mod": {
                    "value": 12
                },
                "proficient": {
                    "value": 0
                },
                "rules": [],
                "slug": null,
                "source": {
                    "value": ""
                },
                "traits": {
                    "custom": "",
                    "rarity": {
                        "value": "common"
                    },
                    "value": []
                }
            },
            "effects": [],
            "flags": {},
            "img": "systems/pf2e/icons/default-icons/lore.svg",
            "name": "Society",
            "sort": 1400000,
            "type": "lore"
        }
    ],
    "name": "Hellknight Cavalry Brigade",
    "token": {
        "disposition": -1,
        "height": 4,
        "img": "systems/pf2e/icons/default-icons/npc.svg",
        "name": "Hellknight Cavalry Brigade",
        "width": 4
    },
    "type": "npc"
}
