{
    "_id": "IxJbFJ8dG5RbZWBD",
    "data": {
        "actionCategory": {
            "value": "offensive"
        },
        "actionType": {
            "value": "action"
        },
        "actions": {
            "value": 2
        },
        "description": {
            "value": "<p>The graveknight unleashes a 30-foot cone of energy.</p>\n<p>Creatures in the area take [[/r 1d12 #____]]{1d12 ____ damage}, plus an additional 1d12 damage for every two levels the graveknight has (<span data-pf2-check=\"reflex\" data-pf2-dc=\"\" data-pf2-traits=\"arcane,evocation\" data-pf2-label=\"Devastating Blast DC\" data-pf2-show-dc=\"gm\">basic Reflex</span> save).</p>\n<p>The graveknight can use this ability once every [[/br 1d4 #rounds]]{1d4 rounds}.</p>\n<p>This energy damage is of the same type as that of its ruinous weapons; <em>Devastating Blast gains the associated energy trait</em>.</p>"
        },
        "requirements": {
            "value": ""
        },
        "rules": [],
        "source": {
            "value": "Pathfinder Bestiary"
        },
        "traits": {
            "custom": "",
            "rarity": {
                "value": "common"
            },
            "value": [
                "arcane",
                "evocation"
            ]
        },
        "trigger": {
            "value": ""
        },
        "weapon": {
            "value": ""
        }
    },
    "effects": [],
    "flags": {},
    "img": "systems/pf2e/icons/actions/TwoActions.webp",
    "name": "(Graveknight) Devastating Blast",
    "type": "action"
}
