{
    "_id": "ZMTnwyXjyfy7Ryi6",
    "data": {
        "actionCategory": {
            "value": "offensive"
        },
        "actionType": {
            "value": "action"
        },
        "actions": {
            "value": 1
        },
        "description": {
            "value": "<p>The vampire transforms into one of its animal forms or back into its normal form. Most vampires can turn into a bat, but some can turn into a different creature, such as a rat or a wolf.</p>\n<p>Use the options in the <em>@Compendium[pf2e.spells-srd.Aerial Form]{Aerial Form}</em> and <em>@Compendium[pf2e.spells-srd.Animal Form]{Animal Form}</em> spells as guidelines.</p>\n<ul>\n<li><strong>Bat</strong> The vampire changes into a @Compendium[pf2e.pathfinder-bestiary.Vampire Bat Swarm]{Bat Swarm} or @Compendium[pf2e.pathfinder-bestiary.Giant Bat]{Giant Bat}. It gains echolocation 40 feet, a land Speed of 20 feet and a fly Speed of 30 feet, and a fangs Strike with the same attack bonus as its highest melee attack. These fangs deal the same amount of damage as the vampire's claws, but deal piercing damage rather than slashing damage.</li>\n</ul>\n<hr />\n<p>The monster changes its shape indefinitely. It can use this action again to return to its natural shape or adopt a new shape. Unless otherwise noted, a monster cannot use Change Shape to appear as a specific individual. Using Change Shape counts as creating a disguise for the @Compendium[pf2e.actionspf2e.Impersonate]{Impersonate} use of Deception. The monster's transformation automatically defeats Perception DCs to determine whether the creature is a member of the ancestry or creature type into which it transformed, and it gains a +4 status bonus to its Deception DC to prevent others from seeing through its disguise. Change Shape abilities specify what shapes the monster can adopt. The monster doesn't gain any special abilities of the new shape, only its physical form. For example, in each shape, it replaces its normal Speeds and Strikes, and might potentially change its senses or size. Any changes are listed in its stat block.</p>"
        },
        "requirements": {
            "value": "Pathfinder Bestiary"
        },
        "rules": [],
        "source": {
            "value": ""
        },
        "traits": {
            "custom": "",
            "rarity": {
                "value": "common"
            },
            "value": [
                "concentrate",
                "divine",
                "polymorph",
                "transmutation"
            ]
        },
        "trigger": {
            "value": ""
        },
        "weapon": {
            "value": ""
        }
    },
    "effects": [],
    "flags": {},
    "img": "systems/pf2e/icons/actions/OneAction.webp",
    "name": "(Vampire, True) Change Shape",
    "type": "action"
}
