{
    "_id": "hPPdfkiRZ1LUpN2h",
    "data": {
        "attributes": {
            "ac": {
                "value": 43
            },
            "hardness": 0,
            "hasHealth": true,
            "hp": {
                "details": "",
                "max": 128,
                "temp": 0,
                "tempmax": 0,
                "value": 128
            },
            "stealth": {
                "details": "(legendary) or DC 47 to notice the dagger left in the pool start to move on its own.",
                "value": 37
            }
        },
        "creatureType": "",
        "details": {
            "description": "An elven woman wearing a robe stands in the water. She beckons anyone who enters the room to join her in the pool.",
            "disable": "Deception 45 (legendary) to pretend to be Erveniss and ask for forgiveness, Diplomacy 45 (legendary) to convince Damurdiel to stand down (elves who are masters in Diplomacy can attempt the check as if they were legendary instead), or Religion 40 (legendary) to call upon Calistria to calm Damurdiel's spirit.",
            "isComplex": true,
            "level": {
                "value": 19
            },
            "reset": "Damurdiel's spirit subsides once she is destroyed or if she manages to reduce a creature to 0 Hit Points. She returns after 1 minute.",
            "routine": "(3 actions) The haunt attempts to Strike with the dagger."
        },
        "saves": {
            "fortitude": {
                "saveDetail": "",
                "value": 26
            },
            "reflex": {
                "saveDetail": "",
                "value": 26
            },
            "will": {
                "saveDetail": "",
                "value": 35
            }
        },
        "source": {
            "value": ""
        },
        "statusEffects": [],
        "traits": {
            "ci": [],
            "di": {
                "custom": "",
                "selected": {},
                "value": []
            },
            "dr": [],
            "dv": [],
            "rarity": {
                "value": "common"
            },
            "size": {
                "value": "med"
            },
            "traits": {
                "custom": "",
                "value": [
                    "haunt"
                ]
            }
        }
    },
    "effects": [],
    "flags": {},
    "img": "systems/pf2e/icons/default-icons/hazard.svg",
    "items": [
        {
            "_id": "QVKGD3jLsVMeTZzu",
            "data": {
                "actionCategory": {
                    "value": ""
                },
                "actionType": {
                    "value": "reaction"
                },
                "actions": {
                    "value": null
                },
                "description": {
                    "value": "<p><strong>Trigger</strong>: A creature approaches within 5 feet of the pool's edge;</p>\n<p><strong>Effect</strong>: The ghostly elf causes a dagger to rise out of the waters and then fling toward the triggering creature. If the attack is a hit, it is a critical hit instead. The haunt then rolls initiative.</p>"
                },
                "requirements": {
                    "value": ""
                },
                "rules": [],
                "slug": null,
                "source": {
                    "value": ""
                },
                "traits": {
                    "custom": "",
                    "rarity": {
                        "value": "common"
                    },
                    "selected": {
                        "attack": "Attack"
                    },
                    "value": [
                        "attack"
                    ]
                },
                "trigger": {
                    "value": ""
                },
                "weapon": {
                    "value": ""
                }
            },
            "effects": [],
            "flags": {},
            "img": "systems/pf2e/icons/actions/Reaction.webp",
            "name": "Surprise Strike",
            "sort": 100000,
            "type": "action"
        },
        {
            "_id": "zgALCNYNRMkV6Bhv",
            "data": {
                "attack": {
                    "value": ""
                },
                "attackEffects": {
                    "value": []
                },
                "bonus": {
                    "value": 40
                },
                "damageRolls": {
                    "rcb99ha9jg7r6cjk3yh269": {
                        "damage": "4d4+10",
                        "damageType": "piercing"
                    },
                    "rf7se4fxlnddwm36t0vt9": {
                        "damage": "20",
                        "damageType": "negative"
                    }
                },
                "description": {
                    "value": ""
                },
                "rules": [],
                "slug": null,
                "source": {
                    "value": ""
                },
                "traits": {
                    "custom": "",
                    "rarity": {
                        "value": "common"
                    },
                    "selected": {
                        "agile": "Agile",
                        "thrown-10": "Thrown 10 ft.",
                        "versatile-s": "Versatile S"
                    },
                    "value": [
                        "agile",
                        "thrown-10",
                        "versatile-s"
                    ]
                },
                "weaponType": {
                    "value": "ranged"
                }
            },
            "effects": [],
            "flags": {},
            "img": "systems/pf2e/icons/default-icons/melee.svg",
            "name": "Dagger",
            "sort": 200000,
            "type": "melee"
        }
    ],
    "name": "Damurdiel's Vengeance",
    "token": {
        "disposition": 0,
        "height": 1,
        "img": "systems/pf2e/icons/default-icons/hazard.svg",
        "name": "Damurdiel's Vengeance",
        "width": 1
    },
    "type": "hazard"
}
