{
    "_id": "KEbmwWwmpAmIoBcm",
    "data": {
        "attributes": {
            "ac": {
                "value": 0
            },
            "hardness": 0,
            "hasHealth": true,
            "hp": {
                "details": "",
                "max": 10,
                "temp": 0,
                "tempmax": 0,
                "value": 10
            },
            "stealth": {
                "details": "<p>(master)</p>",
                "value": 33
            }
        },
        "creatureType": "",
        "details": {
            "description": "A psychic scream disorients creatures in the area.",
            "disable": "<p><span data-pf2-check=\"arcana\" data-pf2-traits=\"magical,trap\" data-pf2-label=\"Suppress the Magic DC\" data-pf2-dc=\"41\" data-pf2-show-dc=\"gm\">Arcana</span> to suppress the magic or <span data-pf2-check=\"thievery\" data-pf2-traits=\"magical,trap\" data-pf2-label=\"Scratch Out the Ward DC\" data-pf2-dc=\"41\" data-pf2-show-dc=\"gm\">Thievery</span> to scratch out the ward</p>",
            "isComplex": false,
            "level": {
                "value": 19
            },
            "reset": "",
            "routine": ""
        },
        "saves": {
            "fortitude": {
                "saveDetail": "",
                "value": 0
            },
            "reflex": {
                "saveDetail": "",
                "value": 0
            },
            "will": {
                "saveDetail": "",
                "value": 0
            }
        },
        "source": {
            "value": "Pathfinder #149: Against the Scarlet Triad"
        },
        "statusEffects": [],
        "traits": {
            "ci": [],
            "di": {
                "custom": "",
                "selected": {},
                "value": []
            },
            "dr": [],
            "dv": [],
            "rarity": {
                "value": "common"
            },
            "size": {
                "value": "med"
            },
            "traits": {
                "custom": "",
                "value": [
                    "magical",
                    "trap"
                ]
            }
        }
    },
    "effects": [],
    "flags": {},
    "img": "systems/pf2e/icons/default-icons/hazard.svg",
    "items": [
        {
            "_id": "LQ20lTeaoccMicH8",
            "data": {
                "actionCategory": {
                    "value": "offensive"
                },
                "actionType": {
                    "value": "reaction"
                },
                "actions": {
                    "value": null
                },
                "description": {
                    "value": "<p><strong>Trigger</strong> A creature enters the marked area;</p>\n<p><strong>Effect</strong> A psychic wail affects all creatures within 10 feet of the marked area, requiring them to attempt a <span data-pf2-check=\"will\" data-pf2-traits=\"arcane,enchantment,incapacitation,mental\" data-pf2-label=\"Psychic Screech DC\" data-pf2-dc=\"41\" data-pf2-show-dc=\"gm\">Will</span> save.</p>\n<div data-visibility=\"gm\">\n<hr />\n<p><strong>Critical Success</strong> The target is unaffected.</p>\n<p><strong>Success</strong> The target is @Compendium[pf2e.conditionitems.Stunned]{Stunned 2}.</p>\n<p><strong>Failure</strong> The target is @Compendium[pf2e.conditionitems.Paralyzed]{Paralyzed} for 1 round, then stunned 2 when the paralysis ends.</p>\n<p><strong>Critical Failure</strong> The target is paralyzed for 4 rounds. At the end of each of its turns, it can attempt a new Will save to reduce the remaining duration by 1 round, or end it entirely on a critical success.</p>\n</div>"
                },
                "requirements": {
                    "value": ""
                },
                "rules": [],
                "slug": null,
                "source": {
                    "value": ""
                },
                "traits": {
                    "custom": "",
                    "rarity": {
                        "value": "common"
                    },
                    "selected": {
                        "arcane": "Arcane",
                        "enchantment": "Enchantment",
                        "incapacitation": "Incapacitation",
                        "mental": "Mental"
                    },
                    "value": [
                        "arcane",
                        "enchantment",
                        "incapacitation",
                        "mental"
                    ]
                },
                "trigger": {
                    "value": ""
                },
                "weapon": {
                    "value": ""
                }
            },
            "effects": [],
            "flags": {},
            "img": "systems/pf2e/icons/actions/Reaction.webp",
            "name": "Psychic Screech",
            "sort": 100000,
            "type": "action"
        }
    ],
    "name": "Mental Scream Trap",
    "token": {
        "disposition": 0,
        "height": 1,
        "img": "systems/pf2e/icons/default-icons/hazard.svg",
        "name": "Mental Scream Trap",
        "width": 1
    },
    "type": "hazard"
}
