{
    "_id": "z4rlpEsE2KgzpOCc",
    "data": {
        "abilities": {
            "cha": {
                "mod": 5
            },
            "con": {
                "mod": 0
            },
            "dex": {
                "mod": 3
            },
            "int": {
                "mod": 3
            },
            "str": {
                "mod": -5
            },
            "wis": {
                "mod": 7
            }
        },
        "attributes": {
            "ac": {
                "details": "",
                "value": 29
            },
            "allSaves": {
                "value": ""
            },
            "hp": {
                "details": "",
                "max": 135,
                "temp": 0,
                "value": 135
            },
            "initiative": {
                "ability": "perception"
            },
            "perception": {
                "value": 22
            },
            "shield": {
                "ac": 0,
                "brokenThreshold": 0,
                "hardness": 0,
                "max": 0,
                "value": 0
            },
            "speed": {
                "otherSpeeds": [],
                "value": "fly 25 feet"
            }
        },
        "details": {
            "alignment": {
                "value": "LE"
            },
            "creatureType": "Undead",
            "flavorText": "<p>Though the Silver Ravens defeated the evil tyrant Barzillai Thrune before he could fully realize his goal of becoming a genius loci, remnants of his spirit remain throughout the Ravounel region. On occasion, these scraps of sentience form a vague, Barzillai-shaped body from bits of the nearby terrain, but when near haunted locations, the spectral force can coalesce into a more precise body using ectoplasm siphoned from these haunts. In either form, the remnant carries a form of Barzillai's own burning mace, which dissolves into a thin mist 1 hour after the remnant is destroyed.<br /><br /> Remnants of Barzillai can manifest anywhere throughout Ravounel, and even after one remnant is defeated, another might arise later on. The undead inquisitor can be put to rest permanently only by retrieving his mace before it disappears, then burying it in a location consecrated by good clerics, where it must remain for at least a year undisturbed.<br /><br /> While a remnant of Barzillai can draw power from any haunt it is associated with, remnants tend to do so with specific haunts. The haunts presented are commonly associated with remnants of Barzillai. These are far from the only haunts Barzillai can create, however; the Silver Ravens' records mention many phenomena associated with the undead being, some of which deal with themes of various birds, the scents of mint and tea, and ghostly figures in heavy armor.</p>",
            "level": {
                "value": 10
            },
            "source": {
                "value": "Pathfinder #147: Tomorrow Must Burn"
            }
        },
        "resources": {},
        "saves": {
            "fortitude": {
                "saveDetail": "",
                "value": 14
            },
            "reflex": {
                "saveDetail": "",
                "value": 21
            },
            "will": {
                "saveDetail": "",
                "value": 23
            }
        },
        "traits": {
            "ci": [],
            "di": {
                "custom": "",
                "value": [
                    "death effects",
                    "disease",
                    "paralyzed",
                    "poison",
                    "precision",
                    "unconscious"
                ]
            },
            "dr": [
                {
                    "exceptions": "force or ghost touch or positive; double resistance vs. non-magical",
                    "label": "All",
                    "type": "all",
                    "value": "8"
                },
                {
                    "label": "Haunted Form",
                    "type": "haunted form",
                    "value": 0
                }
            ],
            "dv": [],
            "languages": {
                "custom": "",
                "selected": [],
                "value": [
                    "aklo",
                    "azlanti",
                    "common",
                    "draconic",
                    "elven",
                    "gnomish",
                    "halfling",
                    "infernal",
                    "jotun",
                    "shadowtongue",
                    "strix",
                    "varisian"
                ]
            },
            "rarity": {
                "value": "rare"
            },
            "senses": {
                "value": "darkvision"
            },
            "size": {
                "value": "med"
            },
            "traits": {
                "custom": "",
                "value": [
                    "incorporeal",
                    "undead"
                ]
            }
        }
    },
    "effects": [],
    "flags": {},
    "img": "systems/pf2e/icons/default-icons/npc.svg",
    "items": [
        {
            "_id": "wTrhi9PyRoPxh06i",
            "data": {
                "attack": {
                    "value": ""
                },
                "attackEffects": {
                    "value": []
                },
                "bonus": {
                    "value": 22
                },
                "damageRolls": {
                    "kximbn2qmfcdo06nzpte": {
                        "damage": "2d6+8",
                        "damageType": "bludgeoning"
                    },
                    "j4hrh9efd9x2g3pz4q9z": {
                        "damage": "2d6",
                        "damageType": "fire"
                    }
                },
                "description": {
                    "value": ""
                },
                "rules": [],
                "slug": null,
                "source": {
                    "value": ""
                },
                "traits": {
                    "custom": "",
                    "rarity": {
                        "value": "common"
                    },
                    "value": [
                        "magical",
                        "fire",
                        "shove"
                    ]
                },
                "weaponType": {
                    "value": "melee"
                }
            },
            "effects": [],
            "flags": {},
            "img": "systems/pf2e/icons/default-icons/melee.svg",
            "name": "Burning Mace",
            "sort": 100000,
            "type": "melee"
        },
        {
            "_id": "hrt10usZTV3s3uKQ",
            "data": {
                "actionCategory": {
                    "value": "defensive"
                },
                "actionType": {
                    "value": "passive"
                },
                "actions": {
                    "value": null
                },
                "description": {
                    "value": "<p>The remnant of Barzillai draws on the power of haunts, reinforcing his form when they are nearby. His resistance to all damage increases to 12 while he's within 60 feet of a haunt. When a haunt within 60 feet of Barzillai is disabled, he takes [[/r 20 #force]]{20 force damage} from the backlash.</p>"
                },
                "requirements": {
                    "value": ""
                },
                "rules": [],
                "slug": null,
                "source": {
                    "value": ""
                },
                "traits": {
                    "custom": "",
                    "rarity": {
                        "value": "common"
                    },
                    "value": [
                        "divine",
                        "necromancy"
                    ]
                },
                "trigger": {
                    "value": ""
                },
                "weapon": {
                    "value": ""
                }
            },
            "effects": [],
            "flags": {},
            "img": "systems/pf2e/icons/default-icons/action.svg",
            "name": "Haunted Form",
            "sort": 200000,
            "type": "action"
        },
        {
            "_id": "zFmXqrFJBmQGs6z5",
            "data": {
                "actionCategory": {
                    "value": "offensive"
                },
                "actionType": {
                    "value": "action"
                },
                "actions": {
                    "value": 3
                },
                "description": {
                    "value": "<p><strong>Frequency</strong> three times per day; <strong>Requirements</strong> The remnant of Barzillai is within Ravounel. <strong>Effect</strong> The remnant of Barzillai stirs up and amplifies unsettled spirits in the area to create a single haunt of 6th level or lower at his present location. This haunt is permanent until it is disabled or the remnant of Barzillai is destroyed.</p>"
                },
                "requirements": {
                    "value": ""
                },
                "rules": [],
                "slug": null,
                "source": {
                    "value": ""
                },
                "traits": {
                    "custom": "",
                    "rarity": {
                        "value": "common"
                    },
                    "value": [
                        "divine",
                        "necromancy"
                    ]
                },
                "trigger": {
                    "value": ""
                },
                "weapon": {
                    "value": ""
                }
            },
            "effects": [],
            "flags": {},
            "img": "systems/pf2e/icons/default-icons/action.svg",
            "name": "Create Haunt",
            "sort": 300000,
            "type": "action"
        },
        {
            "_id": "jxcdLZAZsOlT7I4a",
            "data": {
                "description": {
                    "value": ""
                },
                "item": {
                    "value": 0
                },
                "mod": {
                    "value": 21
                },
                "proficient": {
                    "value": 0
                },
                "rules": [],
                "slug": null,
                "source": {
                    "value": ""
                },
                "traits": {
                    "custom": "",
                    "rarity": {
                        "value": "common"
                    },
                    "value": []
                }
            },
            "effects": [],
            "flags": {},
            "img": "systems/pf2e/icons/default-icons/lore.svg",
            "name": "Arcana",
            "sort": 400000,
            "type": "lore"
        },
        {
            "_id": "ylnWRmdnB5dQFBG8",
            "data": {
                "description": {
                    "value": ""
                },
                "item": {
                    "value": 0
                },
                "mod": {
                    "value": 23
                },
                "proficient": {
                    "value": 0
                },
                "rules": [],
                "slug": null,
                "source": {
                    "value": ""
                },
                "traits": {
                    "custom": "",
                    "rarity": {
                        "value": "common"
                    },
                    "value": []
                }
            },
            "effects": [],
            "flags": {},
            "img": "systems/pf2e/icons/default-icons/lore.svg",
            "name": "Deception",
            "sort": 500000,
            "type": "lore"
        },
        {
            "_id": "OMdfXMSvSGT8mhuO",
            "data": {
                "description": {
                    "value": ""
                },
                "item": {
                    "value": 0
                },
                "mod": {
                    "value": 21
                },
                "proficient": {
                    "value": 0
                },
                "rules": [],
                "slug": null,
                "source": {
                    "value": ""
                },
                "traits": {
                    "custom": "",
                    "rarity": {
                        "value": "common"
                    },
                    "value": []
                }
            },
            "effects": [],
            "flags": {},
            "img": "systems/pf2e/icons/default-icons/lore.svg",
            "name": "Religion",
            "sort": 600000,
            "type": "lore"
        },
        {
            "_id": "2dFmxe51iLswIGAC",
            "data": {
                "description": {
                    "value": ""
                },
                "item": {
                    "value": 0
                },
                "mod": {
                    "value": 19
                },
                "proficient": {
                    "value": 0
                },
                "rules": [],
                "slug": null,
                "source": {
                    "value": ""
                },
                "traits": {
                    "custom": "",
                    "rarity": {
                        "value": "common"
                    },
                    "value": []
                }
            },
            "effects": [],
            "flags": {},
            "img": "systems/pf2e/icons/default-icons/lore.svg",
            "name": "Society",
            "sort": 700000,
            "type": "lore"
        },
        {
            "_id": "s9Tsu9PDPlPpfeYQ",
            "data": {
                "description": {
                    "value": ""
                },
                "item": {
                    "value": 0
                },
                "mod": {
                    "value": 21
                },
                "proficient": {
                    "value": 0
                },
                "rules": [],
                "slug": null,
                "source": {
                    "value": ""
                },
                "traits": {
                    "custom": "",
                    "rarity": {
                        "value": "common"
                    },
                    "value": []
                }
            },
            "effects": [],
            "flags": {},
            "img": "systems/pf2e/icons/default-icons/lore.svg",
            "name": "Torture Lore",
            "sort": 800000,
            "type": "lore"
        }
    ],
    "name": "Remnant of Barzillai",
    "token": {
        "disposition": -1,
        "height": 1,
        "img": "systems/pf2e/icons/default-icons/npc.svg",
        "name": "Remnant of Barzillai",
        "width": 1
    },
    "type": "npc"
}
