{
    "_id": "X4oeJnv1KcpHFO6i",
    "data": {
        "abilities": {
            "cha": {
                "mod": 6
            },
            "con": {
                "mod": 9
            },
            "dex": {
                "mod": 8
            },
            "int": {
                "mod": -4
            },
            "str": {
                "mod": 10
            },
            "wis": {
                "mod": 7
            }
        },
        "attributes": {
            "ac": {
                "details": "",
                "value": 48
            },
            "allSaves": {
                "value": ""
            },
            "hp": {
                "details": "regeneration 25",
                "max": 385,
                "temp": 0,
                "value": 385
            },
            "initiative": {
                "ability": "perception"
            },
            "perception": {
                "value": 39
            },
            "shield": {
                "ac": 0,
                "brokenThreshold": 0,
                "hardness": 0,
                "max": 0,
                "value": 0
            },
            "speed": {
                "otherSpeeds": [
                    {
                        "label": "Burrow",
                        "type": "burrow",
                        "value": "40"
                    },
                    {
                        "label": "Climb",
                        "type": "climb",
                        "value": "60"
                    }
                ],
                "value": "60"
            }
        },
        "details": {
            "alignment": {
                "value": "CE"
            },
            "creatureType": "Animal",
            "flavorText": "<p>A monstrosity of living flame and magma, Xotani may be the weakest of Rovagug's spawn, but it remains a formidable threat. Xotani was slain in 2104 AR by an alliance of spellcasters, but recently its deathlike slumber was interrupted. Its corpse twitches, signaling that it might be close to returning.</p>\n<hr />\n<p>The spawn are titanic terrors of immense size and strength that live only to destroy. Tarrasque and Xotani are but two of Rovagug's spawn. Others, including Chemnosit (the Monarch Worm), Kothogaz (the Dance of Disharmony), and Volnagur (the End-Singer) hold places of horror in the history of various regions, but the most famed is Ulunat (the Unholy First), whose beetle-like carcass remains sprawled in Sothis, the capital of Osirion.</p>",
            "level": {
                "value": 20
            },
            "source": {
                "value": "Pathfinder #150: Broken Promises"
            }
        },
        "resources": {},
        "saves": {
            "fortitude": {
                "saveDetail": "",
                "value": 36
            },
            "reflex": {
                "saveDetail": "",
                "value": 33
            },
            "will": {
                "saveDetail": "",
                "value": 30
            }
        },
        "traits": {
            "ci": [],
            "di": {
                "custom": "",
                "value": [
                    "clumsy",
                    "disease",
                    "drained",
                    "enfeebled",
                    "fire",
                    "mental",
                    "paralyzed",
                    "petrified",
                    "poison",
                    "polymorph",
                    "stupefied"
                ]
            },
            "dr": [
                {
                    "label": "Electricity",
                    "type": "electricity",
                    "value": "22"
                },
                {
                    "label": "Physical",
                    "type": "physical",
                    "value": "22"
                },
                {
                    "label": "Sonic",
                    "type": "sonic",
                    "value": "22"
                }
            ],
            "dv": [
                {
                    "label": "Cold",
                    "type": "cold",
                    "value": "22"
                }
            ],
            "languages": {
                "custom": "Cannot speak any language",
                "selected": [],
                "value": [
                    "aklo",
                    "custom"
                ]
            },
            "rarity": {
                "value": "unique"
            },
            "senses": {
                "value": "blindsight (precise) 120 feet, darkvision"
            },
            "size": {
                "value": "grg"
            },
            "traits": {
                "custom": "",
                "value": [
                    "beast",
                    "fire"
                ]
            }
        }
    },
    "effects": [],
    "flags": {},
    "img": "systems/pf2e/icons/default-icons/npc.svg",
    "items": [
        {
            "_id": "lWDO2icn4khYwlgs",
            "data": {
                "attack": {
                    "value": ""
                },
                "attackEffects": {
                    "value": []
                },
                "bonus": {
                    "value": 38
                },
                "damageRolls": {
                    "ieomx2httujpa0pjpi3k": {
                        "damage": "5d10+8",
                        "damageType": "piercing"
                    }
                },
                "description": {
                    "value": "<p>[[/r 2d8 #persistent fire]] @Compendium[pf2e.conditionitems.Persistent Damage]{Persistent Fire Damage}</p>"
                },
                "rules": [],
                "slug": null,
                "source": {
                    "value": ""
                },
                "traits": {
                    "custom": "",
                    "rarity": {
                        "value": "common"
                    },
                    "value": [
                        "reach-20"
                    ]
                },
                "weaponType": {
                    "value": "melee"
                }
            },
            "effects": [],
            "flags": {},
            "img": "systems/pf2e/icons/default-icons/melee.svg",
            "name": "Jaws",
            "sort": 100000,
            "type": "melee"
        },
        {
            "_id": "ggGBjbtHJJq44MAq",
            "data": {
                "attack": {
                    "value": ""
                },
                "attackEffects": {
                    "value": []
                },
                "bonus": {
                    "value": 38
                },
                "damageRolls": {
                    "jgct7htx73m5pprlm0kn": {
                        "damage": "5d8+8",
                        "damageType": "slashing"
                    }
                },
                "description": {
                    "value": "<p>[[/r 2d8 #persistent fire]] @Compendium[pf2e.conditionitems.Persistent Damage]{Persistent Fire Damage}</p>"
                },
                "rules": [],
                "slug": null,
                "source": {
                    "value": ""
                },
                "traits": {
                    "custom": "",
                    "rarity": {
                        "value": "common"
                    },
                    "value": [
                        "agile",
                        "reach-20"
                    ]
                },
                "weaponType": {
                    "value": "melee"
                }
            },
            "effects": [],
            "flags": {},
            "img": "systems/pf2e/icons/default-icons/melee.svg",
            "name": "Claw",
            "sort": 200000,
            "type": "melee"
        },
        {
            "_id": "PT2MUTRJtcohFtP9",
            "data": {
                "attack": {
                    "value": ""
                },
                "attackEffects": {
                    "value": []
                },
                "bonus": {
                    "value": 38
                },
                "damageRolls": {
                    "a1tyl27i8kdtz0q05j63": {
                        "damage": "2d10+8",
                        "damageType": "bludgeoning"
                    }
                },
                "description": {
                    "value": "<p>[[/r 2d10 #persistent fire]] @Compendium[pf2e.conditionitems.Persistent Damage]{Persistent Fire Damage}</p>"
                },
                "rules": [],
                "slug": null,
                "source": {
                    "value": ""
                },
                "traits": {
                    "custom": "",
                    "rarity": {
                        "value": "common"
                    },
                    "value": [
                        "range-increment-80"
                    ]
                },
                "weaponType": {
                    "value": "ranged"
                }
            },
            "effects": [],
            "flags": {},
            "img": "systems/pf2e/icons/default-icons/melee.svg",
            "name": "Lava Bomb",
            "sort": 300000,
            "type": "melee"
        },
        {
            "_id": "jQUqBzYMtuQRpcmS",
            "data": {
                "actionCategory": {
                    "value": "interaction"
                },
                "actionType": {
                    "value": "passive"
                },
                "actions": {
                    "value": null
                },
                "description": {
                    "value": "<p>A monster with darkvision can see perfectly well in areas of darkness and dim light, though such vision is in black and white only. Some forms of magical darkness, such as a 4th-level @Compendium[pf2e.spells-srd.Darkness]{Darkness} spell, block normal darkvision. A monster with @Compendium[pf2e.bestiary-ability-glossary-srd.Greater Darkvision]{Greater Darkvision}, however, can see through even these forms of magical darkness.</p>"
                },
                "requirements": {
                    "value": ""
                },
                "rules": [],
                "slug": "darkvision",
                "source": {
                    "value": ""
                },
                "traits": {
                    "custom": "",
                    "rarity": {
                        "value": "common"
                    },
                    "value": []
                },
                "trigger": {
                    "value": ""
                },
                "weapon": {
                    "value": ""
                }
            },
            "effects": [],
            "flags": {
                "core": {
                    "sourceId": "Compendium.pf2e.bestiary-ability-glossary-srd.qCCLZhnp2HhP3Ex6"
                }
            },
            "img": "systems/pf2e/icons/actions/Passive.webp",
            "name": "Darkvision",
            "sort": 400000,
            "type": "action"
        },
        {
            "_id": "FQumD5lxgm3RrE1g",
            "data": {
                "actionCategory": {
                    "value": "interaction"
                },
                "actionType": {
                    "value": "passive"
                },
                "actions": {
                    "value": null
                },
                "description": {
                    "value": ""
                },
                "requirements": {
                    "value": ""
                },
                "rules": [],
                "slug": null,
                "source": {
                    "value": ""
                },
                "traits": {
                    "custom": "",
                    "rarity": {
                        "value": "common"
                    },
                    "value": []
                },
                "trigger": {
                    "value": ""
                },
                "weapon": {
                    "value": ""
                }
            },
            "effects": [],
            "flags": {},
            "img": "systems/pf2e/icons/actions/Passive.webp",
            "name": "Blindsight (Precise) 120 feet",
            "sort": 500000,
            "type": "action"
        },
        {
            "_id": "J7B6WzdiD0YTP0qQ",
            "data": {
                "actionCategory": {
                    "value": "defensive"
                },
                "actionType": {
                    "value": "passive"
                },
                "actions": {
                    "value": null
                },
                "description": {
                    "value": "<p>Xotani's light blindness is caused by only sunlight.</p>"
                },
                "requirements": {
                    "value": ""
                },
                "rules": [],
                "slug": null,
                "source": {
                    "value": ""
                },
                "traits": {
                    "custom": "",
                    "rarity": {
                        "value": "common"
                    },
                    "value": []
                },
                "trigger": {
                    "value": ""
                },
                "weapon": {
                    "value": ""
                }
            },
            "effects": [],
            "flags": {},
            "img": "systems/pf2e/icons/actions/Passive.webp",
            "name": "Light Blindness",
            "sort": 600000,
            "type": "action"
        },
        {
            "_id": "8NJr1zJWkswMN2qH",
            "data": {
                "actionCategory": {
                    "value": "defensive"
                },
                "actionType": {
                    "value": "passive"
                },
                "actions": {
                    "value": null
                },
                "description": {
                    "value": "<p>Xotani gains 3 reactions each round. It can still use only one reaction per trigger.</p>"
                },
                "requirements": {
                    "value": ""
                },
                "rules": [],
                "slug": null,
                "source": {
                    "value": ""
                },
                "traits": {
                    "custom": "",
                    "rarity": {
                        "value": "common"
                    },
                    "value": []
                },
                "trigger": {
                    "value": ""
                },
                "weapon": {
                    "value": ""
                }
            },
            "effects": [],
            "flags": {},
            "img": "systems/pf2e/icons/actions/Passive.webp",
            "name": "Reactive",
            "sort": 700000,
            "type": "action"
        },
        {
            "_id": "dDFsE7xMeGqFnlPS",
            "data": {
                "actionCategory": {
                    "value": "defensive"
                },
                "actionType": {
                    "value": "reaction"
                },
                "actions": {
                    "value": null
                },
                "description": {
                    "value": "<p><strong>Trigger</strong> Xotani is damaged;</p>\n<p><strong>Effect</strong> Xotani's wound erupts with magma in a 30-foot cone, dealing [[/r 6d8 #fire]]{6d8 fire damage} and [[/r 6d8 #persistent fire]] @Compendium[pf2e.conditionitems.Persistent Damage]{Persistent fire Damage} (<span data-pf2-check=\"reflex\" data-pf2-traits=\"damaging-effect,fire\" data-pf2-label=\"Firebleed DC\" data-pf2-dc=\"42\" data-pf2-show-dc=\"gm\">basic Reflex</span> save).</p>"
                },
                "requirements": {
                    "value": ""
                },
                "rules": [],
                "slug": null,
                "source": {
                    "value": ""
                },
                "traits": {
                    "custom": "",
                    "rarity": {
                        "value": "common"
                    },
                    "value": [
                        "fire"
                    ]
                },
                "trigger": {
                    "value": ""
                },
                "weapon": {
                    "value": ""
                }
            },
            "effects": [],
            "flags": {},
            "img": "systems/pf2e/icons/actions/Reaction.webp",
            "name": "Firebleed",
            "sort": 800000,
            "type": "action"
        },
        {
            "_id": "zWMWo1FSBvdX4mhf",
            "data": {
                "actionCategory": {
                    "value": "defensive"
                },
                "actionType": {
                    "value": "reaction"
                },
                "actions": {
                    "value": null
                },
                "description": {
                    "value": "<p><strong>Trigger</strong> A creature within the monster's reach uses a manipulate action or a move action, makes a ranged attack, or leaves a square during a move action it's using.</p>\n<p><strong>Effect</strong> The monster attempts a melee Strike against the triggering creature. If the attack is a critical hit and the trigger was a manipulate action, the monster disrupts that action. This Strike doesn't count toward the monster's multiple attack penalty, and its multiple attack penalty doesn't apply to this Strike.</p>"
                },
                "requirements": {
                    "value": ""
                },
                "rules": [],
                "slug": "attack-of-opportunity",
                "source": {
                    "value": ""
                },
                "traits": {
                    "custom": "",
                    "rarity": {
                        "value": "common"
                    },
                    "value": []
                },
                "trigger": {
                    "value": ""
                },
                "weapon": {
                    "value": ""
                }
            },
            "effects": [],
            "flags": {
                "core": {
                    "sourceId": "Compendium.pf2e.bestiary-ability-glossary-srd.hFtNbo1LKYCoDy2O"
                }
            },
            "img": "systems/pf2e/icons/actions/Reaction.webp",
            "name": "Attack of Opportunity",
            "sort": 900000,
            "type": "action"
        },
        {
            "_id": "eWRYW3sMrzor03KL",
            "data": {
                "actionCategory": {
                    "value": "defensive"
                },
                "actionType": {
                    "value": "passive"
                },
                "actions": {
                    "value": null
                },
                "description": {
                    "value": "<p>@Compendium[pf2e.bestiary-ability-glossary-srd.Aura]{Aura} 300 feet, <span data-pf2-check=\"will\" data-pf2-traits=\"aura, emotion, fear, mental\" data-pf2-label=\"Frightful Presence DC\" data-pf2-dc=\"39\" data-pf2-show-dc=\"gm\">Will</span> save</p>\n<hr />\n<p>A creature that first enters the area must attempt a Will save. Regardless of the result of the saving throw, the creature is temporarily immune to this monster's Frightful Presence for 1 minute.</p>\n<p><strong>Critical Success</strong> The creature is unaffected by the presence.</p>\n<p><strong>Success</strong> The creature is @Compendium[pf2e.conditionitems.Frightened]{Frightened 1}.</p>\n<p><strong>Failure</strong> The creature is @Compendium[pf2e.conditionitems.Frightened]{Frightened 2}.</p>\n<p><strong>Critical Failure</strong> The creature is @Compendium[pf2e.conditionitems.Frightened]{Frightened 4}.</p>"
                },
                "requirements": {
                    "value": ""
                },
                "rules": [],
                "slug": "frightful-presence",
                "source": {
                    "value": ""
                },
                "traits": {
                    "custom": "",
                    "rarity": {
                        "value": "common"
                    },
                    "value": [
                        "aura",
                        "emotion",
                        "fear",
                        "mental"
                    ]
                },
                "trigger": {
                    "value": ""
                },
                "weapon": {
                    "value": ""
                }
            },
            "effects": [],
            "flags": {
                "core": {
                    "sourceId": "Compendium.pf2e.bestiary-ability-glossary-srd.etMnv73EIdEZrYYu"
                }
            },
            "img": "systems/pf2e/icons/actions/Passive.webp",
            "name": "Frightful Presence",
            "sort": 1000000,
            "type": "action"
        },
        {
            "_id": "BSFOYE4jxrwLzw75",
            "data": {
                "actionCategory": {
                    "value": "defensive"
                },
                "actionType": {
                    "value": "passive"
                },
                "actions": {
                    "value": null
                },
                "description": {
                    "value": "<p>25</p>\n<p>This monster regains the listed number of Hit Points each round at the beginning of its turn. Its @Compendium[pf2e.conditionitems.Dying]{Dying} condition never increases beyond Dying 3 as long as its regeneration is active. However, if it takes damage of a type listed in the regeneration entry, its regeneration deactivates until the end of its next turn. Deactivate the regeneration before applying any damage of a listed type, since that damage might kill the monster by bringing it to Dying 4.</p>"
                },
                "requirements": {
                    "value": ""
                },
                "rules": [],
                "slug": "regeneration",
                "source": {
                    "value": ""
                },
                "traits": {
                    "custom": "",
                    "rarity": {
                        "value": "common"
                    },
                    "value": []
                },
                "trigger": {
                    "value": ""
                },
                "weapon": {
                    "value": ""
                }
            },
            "effects": [],
            "flags": {
                "core": {
                    "sourceId": "Compendium.pf2e.bestiary-ability-glossary-srd.lR9R5Vld8Eu2Dha5"
                }
            },
            "img": "systems/pf2e/icons/actions/Passive.webp",
            "name": "Regeneration 25",
            "sort": 1100000,
            "type": "action"
        },
        {
            "_id": "7FqmJPlXVaPfi1Q8",
            "data": {
                "actionCategory": {
                    "value": "offensive"
                },
                "actionType": {
                    "value": "action"
                },
                "actions": {
                    "value": 2
                },
                "description": {
                    "value": "<p>Xotani makes three lava bomb Strikes. These Strikes can be made against the same creature or different creatures, as long as all targets are within 40 feet of each other.</p>"
                },
                "requirements": {
                    "value": ""
                },
                "rules": [],
                "slug": null,
                "source": {
                    "value": ""
                },
                "traits": {
                    "custom": "",
                    "rarity": {
                        "value": "common"
                    },
                    "value": []
                },
                "trigger": {
                    "value": ""
                },
                "weapon": {
                    "value": ""
                }
            },
            "effects": [],
            "flags": {},
            "img": "systems/pf2e/icons/default-icons/action.svg",
            "name": "Bomb Barrage",
            "sort": 1200000,
            "type": "action"
        },
        {
            "_id": "To3ttdceko61OtLl",
            "data": {
                "actionCategory": {
                    "value": "offensive"
                },
                "actionType": {
                    "value": "action"
                },
                "actions": {
                    "value": 2
                },
                "description": {
                    "value": "<p>Xotani breathes a blast of flame that deals [[/r 18d6 #fire]]{18d6 fire damage} plus [[/r 4d6 #persistent fire]] @Compendium[pf2e.conditionitems.Persistent Damage]{Persistent fire Damage} to all creatures in a 70-foot cone (<span data-pf2-check=\"reflex\" data-pf2-traits=\"damaging-effect,arcane, evocation, fire\" data-pf2-label=\"Breath Weapon\" data-pf2-dc=\"42\" data-pf2-show-dc=\"gm\">basic Reflex</span> save).</p>\n<p data-visibility=\"gm\">It can't use Breath Weapon again for [[/br 1d4 #rounds]]{1d4 rounds}.</p>"
                },
                "requirements": {
                    "value": ""
                },
                "rules": [],
                "slug": null,
                "source": {
                    "value": ""
                },
                "traits": {
                    "custom": "",
                    "rarity": {
                        "value": "common"
                    },
                    "value": [
                        "arcane",
                        "evocation",
                        "fire"
                    ]
                },
                "trigger": {
                    "value": ""
                },
                "weapon": {
                    "value": ""
                }
            },
            "effects": [],
            "flags": {},
            "img": "systems/pf2e/icons/actions/TwoActions.webp",
            "name": "Breath Weapon",
            "sort": 1300000,
            "type": "action"
        },
        {
            "_id": "IcprrivigaRsacAR",
            "data": {
                "actionCategory": {
                    "value": "offensive"
                },
                "actionType": {
                    "value": "action"
                },
                "actions": {
                    "value": 1
                },
                "description": {
                    "value": "<p>Huge, [[/r 8d6+8 #bludgeoning]]{8d6+8 bludgeoning} plus [[/r 12d6 #fire]]{12d6 fire}, Rupture 35</p>\n<hr />\n<p>The monster attempts to swallow a creature of the listed size or smaller that it has grabbed in its jaws or mouth. If a swallowed creature is of the maximum size listed, the monster can't use Swallow Whole again. If the creature is smaller than the maximum, the monster can usually swallow more creatures; the GM determines the maximum. The monster attempts an Athletics check opposed by the grabbed creature's Reflex DC. If it succeeds, it swallows the creature. The monster's mouth or jaws no longer grab a creature it has swallowed, so the monster is free to use them to Strike or Grab once again. The monster can't attack creatures it has swallowed.</p>\n<p>A swallowed creature is @Compendium[pf2e.conditionitems.Grabbed]{Grabbed}, is @Compendium[pf2e.conditionitems.Slowed]{Slowed 1}, and has to hold its breath or start suffocating. The swallowed creature takes the listed amount of damage when first swallowed and at the end of each of its turns while it's swallowed. If the victim @Compendium[pf2e.actionspf2e.Escape]{Escapes} this ability's grabbed condition, it exits through the monster's mouth. This frees any other creature grabbed in the monster's mouth or jaws. A swallowed creature can attack the monster that has swallowed it, but only with unarmed attacks or with weapons of light Bulk or less. The swallowing creature is @Compendium[pf2e.conditionitems.Flat-Footed]{Flat-Footed} against the attack. If the monster takes piercing or slashing damage equaling or exceeding the listed Rupture value from a single attack or spell, the swallowed creature cuts itself free. A creature that gets free by either Escaping or cutting itself free can immediately breathe and exits the swallowing monster's space.</p>\n<p>If the monster dies, a swallowed creature can be freed by creatures adjacent to the corpse if they spend a combined total of 3 actions cutting the monster open with a weapon or unarmed attack that deals piercing or slashing damage.</p>"
                },
                "requirements": {
                    "value": ""
                },
                "rules": [],
                "slug": "swallow-whole",
                "source": {
                    "value": ""
                },
                "traits": {
                    "custom": "",
                    "rarity": {
                        "value": "common"
                    },
                    "value": [
                        "attack"
                    ]
                },
                "trigger": {
                    "value": ""
                },
                "weapon": {
                    "value": ""
                }
            },
            "effects": [],
            "flags": {
                "core": {
                    "sourceId": "Compendium.pf2e.bestiary-ability-glossary-srd.uJSseLa57HZYSMUu"
                }
            },
            "img": "systems/pf2e/icons/actions/OneAction.webp",
            "name": "Swallow Whole",
            "sort": 1400000,
            "type": "action"
        },
        {
            "_id": "EDnXO2OsX5YQGXQy",
            "data": {
                "actionCategory": {
                    "value": "offensive"
                },
                "actionType": {
                    "value": "action"
                },
                "actions": {
                    "value": 3
                },
                "description": {
                    "value": "<p>Huge or smaller, claw, <span data-pf2-check=\"reflex\" data-pf2-traits=\"damaging-effect\" data-pf2-label=\"Trample DC\" data-pf2-dc=\"42\" data-pf2-show-dc=\"gm\">basic Reflex</span> save. When Xotani Tramples, it can Stride up to triple its Speed.</p>\n<hr />\n<p>The monster Strides up to double its Speed and can move through the spaces of creatures of the listed size, Trampling each creature whose space it enters. The monster can attempt to Trample the same creature only once in a single use of Trample. The monster deals the damage of the listed Strike, but trampled creatures can attempt a basic Reflex save at the listed DC (no damage on a critical success, half damage on a success, double damage on a critical failure).</p>"
                },
                "requirements": {
                    "value": ""
                },
                "rules": [],
                "slug": "trample",
                "source": {
                    "value": ""
                },
                "traits": {
                    "custom": "",
                    "rarity": {
                        "value": "common"
                    },
                    "value": []
                },
                "trigger": {
                    "value": ""
                },
                "weapon": {
                    "value": ""
                }
            },
            "effects": [],
            "flags": {
                "core": {
                    "sourceId": "Compendium.pf2e.bestiary-ability-glossary-srd.UNah0bxXxkcZjxO3"
                }
            },
            "img": "systems/pf2e/icons/actions/ThreeActions.webp",
            "name": "Trample",
            "sort": 1500000,
            "type": "action"
        },
        {
            "_id": "0AwaC30pnaNXrk5f",
            "data": {
                "description": {
                    "value": ""
                },
                "item": {
                    "value": 0
                },
                "mod": {
                    "value": 41
                },
                "proficient": {
                    "value": 0
                },
                "rules": [],
                "slug": null,
                "source": {
                    "value": ""
                },
                "traits": {
                    "custom": "",
                    "rarity": {
                        "value": "common"
                    },
                    "value": []
                }
            },
            "effects": [],
            "flags": {},
            "img": "systems/pf2e/icons/default-icons/lore.svg",
            "name": "Athletics",
            "sort": 1600000,
            "type": "lore"
        }
    ],
    "name": "Xotani, The Firebleeder",
    "token": {
        "disposition": -1,
        "height": 4,
        "img": "systems/pf2e/icons/default-icons/npc.svg",
        "name": "Xotani",
        "width": 4
    },
    "type": "npc"
}
