{
    "_id": "S9PZFOVe7zhORkUc",
    "data": {
        "actionCategory": {
            "value": "defensive"
        },
        "actionType": {
            "value": "reaction"
        },
        "actions": {
            "value": null
        },
        "description": {
            "value": "<p><strong>Trigger</strong> An enemy casts a spell that targets you or an ally within 15 feet of you</p>\n<hr />\n<p>You interpose your shield's ward against the spell. Attempt a counteract check, using your Religion modifier as your counteract modifier. On a success, the spell is counteracted and your shield takes damage equal to four times the spell level as it absorbs and disperses the magical energy. On a failure, the shield takes damage equal to twice the spell's level.</p>"
        },
        "requirements": {
            "value": ""
        },
        "rules": [],
        "source": {
            "value": ""
        },
        "traits": {
            "custom": "",
            "rarity": {
                "value": "common"
            },
            "selected": {},
            "value": []
        },
        "trigger": {
            "value": ""
        },
        "weapon": {
            "value": ""
        }
    },
    "effects": [],
    "flags": {},
    "img": "systems/pf2e/icons/actions/Reaction.webp",
    "name": "Absorb into the Aegis",
    "type": "action"
}
