{
    "_id": "LUBS9csNNgRTui4p",
    "data": {
        "description": {
            "value": "<p>Prequisites @Compendium[pf2e.feats-srd.Leshy Familiar Secrets]{Leshy Familiar Secrets}</p>\n<p>Your familiar can extend vines or similar tendrils, increasing its reach to 15 feet.</p>"
        },
        "duration": {
            "expiry": "turn-start",
            "sustained": false,
            "unit": "unlimited",
            "value": -1
        },
        "level": {
            "value": 4
        },
        "rules": [],
        "source": {
            "value": ""
        },
        "start": {
            "initiative": null,
            "value": 0
        },
        "target": null,
        "tokenIcon": {
            "show": false
        },
        "traits": {
            "custom": "",
            "rarity": {
                "value": "common"
            },
            "value": []
        }
    },
    "effects": [],
    "flags": {},
    "img": "systems/pf2e/icons/actions/Passive.webp",
    "name": "Grasping Tendrils",
    "type": "effect"
}
