{
    "_id": "dpIrjd1UPY7EnWUD",
    "data": {
        "description": {
            "value": "<p>Granted by @Compendium[pf2e.equipment-srd.Silvertongue Mutagen (Lesser)]{Silvertongue Mutagen (Lesser)}</p>\n<p>Implemented effects:</p>\n<ul>\n<li>+1 item bonus to Deception, Diplomacy, Intimidation and Performance checks</li>\n<li>-2 item penalty to Arcana, Crafting, Occulism and Society checks</li>\n</ul>\n<p>Unimplemented effects:</p>\n<ul>\n<li>Your critical failures for Deception, Diplomacy, Intimidation, Performance become failures instead</li>\n<li>-2 item penalty to Lore checks</li>\n<li>Become untrained in one skill you're trained in</li>\n<li>All Recall Knowledge failures are critical failures</li>\n</ul>"
        },
        "duration": {
            "expiry": "turn-start",
            "sustained": false,
            "unit": "minutes",
            "value": 1
        },
        "level": {
            "value": 1
        },
        "rules": [
            {
                "key": "PF2E.RuleElement.FlatModifier",
                "label": "Silvertongue Mutagen (Lesser)",
                "selector": "deception",
                "type": "item",
                "value": 1
            },
            {
                "key": "PF2E.RuleElement.FlatModifier",
                "label": "Silvertongue Mutagen (Lesser)",
                "selector": "diplomacy",
                "type": "item",
                "value": 1
            },
            {
                "key": "PF2E.RuleElement.FlatModifier",
                "label": "Silvertongue Mutagen (Lesser)",
                "selector": "intimidation",
                "type": "item",
                "value": 1
            },
            {
                "key": "PF2E.RuleElement.FlatModifier",
                "label": "Silvertongue Mutagen (Lesser)",
                "selector": "performance",
                "type": "item",
                "value": 1
            },
            {
                "key": "PF2E.RuleElement.FlatModifier",
                "label": "Silvertongue Mutagen (Lesser)",
                "selector": "arcana",
                "type": "item",
                "value": -2
            },
            {
                "key": "PF2E.RuleElement.FlatModifier",
                "label": "Silvertongue Mutagen (Lesser)",
                "selector": "crafting",
                "type": "item",
                "value": -2
            },
            {
                "key": "PF2E.RuleElement.FlatModifier",
                "label": "Silvertongue Mutagen (Lesser)",
                "selector": "occultism",
                "type": "item",
                "value": -2
            },
            {
                "key": "PF2E.RuleElement.FlatModifier",
                "label": "Silvertongue Mutagen (Lesser)",
                "selector": "society",
                "type": "item",
                "value": -2
            }
        ],
        "source": {
            "value": ""
        },
        "start": {
            "initiative": null,
            "value": 0
        },
        "target": null,
        "tokenIcon": {
            "show": true
        },
        "traits": {
            "custom": "",
            "rarity": {
                "value": "common"
            },
            "value": []
        }
    },
    "effects": [],
    "flags": {},
    "img": "systems/pf2e/icons/equipment/alchemical-items/alchemical-elixirs/silvertongue-mutagen.webp",
    "name": "Effect: Silvertongue Mutagen (Lesser)",
    "type": "effect"
}
