{
    "_id": "S4MZzALqFoXJsr6o",
    "data": {
        "description": {
            "value": "<p>Granted by @Compendium[pf2e.equipment-srd.Bloodhound Mask (Lesser)]{Bloodhound Mask (Lesser)}</p>\n<p>Automatically applied effects:</p>\n<ul>\n<li>Gain imprecise sense, with a range of 15 feet</li>\n<li>+1 item bonus to Survival checks to track</li>\n</ul>"
        },
        "duration": {
            "expiry": "turn-start",
            "sustained": false,
            "unit": "minutes",
            "value": 10
        },
        "level": {
            "value": 2
        },
        "rules": [
            {
                "acuity": "imprecise",
                "key": "PF2E.RuleElement.Sense",
                "label": "PF2E.SensesScent",
                "range": 15,
                "selector": "scent"
            },
            {
                "key": "PF2E.RuleElement.FlatModifier",
                "label": "Bloodhound Mask (Track by scent)",
                "predicate": {
                    "all": [
                        "action:track",
                        "scent"
                    ]
                },
                "selector": "survival",
                "type": "item",
                "value": 1
            }
        ],
        "source": {
            "value": ""
        },
        "start": {
            "initiative": null,
            "value": 0
        },
        "target": null,
        "tokenIcon": {
            "show": true
        },
        "traits": {
            "custom": "",
            "rarity": {
                "value": "common"
            },
            "value": []
        }
    },
    "effects": [],
    "flags": {},
    "img": "systems/pf2e/icons/equipment/alchemical-items/alchemical-tools/bloodhound-mask.webp",
    "name": "Effect: Bloodhound Mask (Lesser)",
    "type": "effect"
}
