{
    "_id": "wTZnKkT0K4Tdy8mD",
    "data": {
        "description": {
            "value": "<p>Granted by @Compendium[pf2e.equipment-srd.Bravo's Brew (Moderate)]{Bravo's Brew (Moderate)}</p>\n<p>Implemented effects:</p>\n<ul>\n<li>+2 item bonus to Will saves</li>\n<li>+3 item bonus to Will saves against fear</li>\n</ul>"
        },
        "duration": {
            "expiry": "turn-start",
            "sustained": false,
            "unit": "hours",
            "value": 1
        },
        "level": {
            "value": 10
        },
        "rules": [
            {
                "key": "PF2E.RuleElement.FlatModifier",
                "label": "Bravo's Brew (Moderate)",
                "selector": "will",
                "type": "item",
                "value": 2
            },
            {
                "key": "PF2E.RuleElement.FlatModifier",
                "label": "Bravo's Brew Moderate (vs. fear)",
                "predicate": {
                    "all": [
                        "fear"
                    ]
                },
                "selector": "will",
                "type": "item",
                "value": 3
            }
        ],
        "source": {
            "value": ""
        },
        "start": {
            "initiative": null,
            "value": 0
        },
        "target": null,
        "tokenIcon": {
            "show": true
        },
        "traits": {
            "custom": "",
            "rarity": {
                "value": "common"
            },
            "value": []
        }
    },
    "effects": [],
    "flags": {},
    "img": "systems/pf2e/icons/equipment/alchemical-items/alchemical-elixirs/bravos-brew.webp",
    "name": "Effect: Bravo's Brew (Moderate)",
    "type": "effect"
}
