{
    "_id": "5hUj7glY8YnO5sBI",
    "data": {
        "actionCategory": {
            "value": ""
        },
        "actionType": {
            "value": "passive"
        },
        "actions": {
            "value": null
        },
        "description": {
            "value": "<p>You gain access to a powerful new school spell depending on your arcane school.</p>\n<p>If you're an abjurer, you gain @Compendium[pf2e.spells-srd.Energy Absorption]{Energy Absorption}; if you're a conjurer, you gain @Compendium[pf2e.spells-srd.Dimensional Steps]{Dimensional Steps}; if you're a diviner, you gain @Compendium[pf2e.spells-srd.Vigilant Eye]{Vigilant Eye}; if you're an enchanter, you gain @Compendium[pf2e.spells-srd.Dread Aura]{Dread Aura}; if you're an evoker, you gain @Compendium[pf2e.spells-srd.Elemental Tempest]{Elemental Tempest}; if you're an illusionist, you gain @Compendium[pf2e.spells-srd.Invisibility Cloak]{Invisibility Cloak}; if you're a necromancer, you gain @Compendium[pf2e.spells-srd.Life Siphon]{Life Siphon}; and if you're a transmuter, you gain @Compendium[pf2e.spells-srd.Shifting Form]{Shifting Form}.</p>\n<p>Increase the number of Focus Points in your focus pool by 1.</p>"
        },
        "featType": {
            "value": "class"
        },
        "level": {
            "value": 8
        },
        "location": "",
        "prerequisites": {
            "value": [
                {
                    "value": "arcane school"
                }
            ]
        },
        "rules": [
            {
                "key": "ActiveEffectLike",
                "mode": "add",
                "path": "data.resources.focus.max",
                "value": 1
            }
        ],
        "source": {
            "value": ""
        },
        "traits": {
            "custom": "",
            "rarity": {
                "value": "common"
            },
            "value": [
                "wizard"
            ]
        }
    },
    "effects": [],
    "flags": {},
    "img": "systems/pf2e/icons/features/feats/feats.webp",
    "name": "Advanced School Spell",
    "type": "feat"
}
