{
    "_id": "TZASOwBqVveGjw77",
    "data": {
        "actionCategory": {
            "value": ""
        },
        "actionType": {
            "value": "passive"
        },
        "actions": {
            "value": null
        },
        "description": {
            "value": "<p>You break down a specific individual's idiolect, memorizing their speech mannerisms and habits.</p>\n<p>If you interact with someone for at least 10 minutes, when you later attempt to @Compendium[pf2e.actionspf2e.Impersonate]{Impersonate} that individual, you gain a +4 circumstance bonus to your Deception checks and DCs. Due to the intense character study required, you can't remember more than one idiolect at a time.</p>"
        },
        "featType": {
            "value": "archetype"
        },
        "level": {
            "value": 6
        },
        "location": "",
        "prerequisites": {
            "value": [
                {
                    "value": "Linguist Dedication"
                },
                {
                    "value": "expert in Deception"
                },
                {
                    "value": "expert in Society"
                }
            ]
        },
        "rules": [
            {
                "key": "PF2E.RuleElement.FlatModifier",
                "predicate": {
                    "all": [
                        "analyze-idiolect"
                    ]
                },
                "selector": "deception",
                "type": "circumstance",
                "value": 4
            },
            {
                "key": "PF2E.RuleElement.ToggleProperty",
                "property": "flags.pf2e.rollOptions.all.analyze-idiolect"
            }
        ],
        "source": {
            "value": ""
        },
        "traits": {
            "custom": "",
            "rarity": {
                "value": "common"
            },
            "value": [
                "archetype",
                "skill"
            ]
        }
    },
    "effects": [],
    "flags": {},
    "img": "systems/pf2e/icons/features/feats/feats.webp",
    "name": "Analyze Idiolect",
    "type": "feat"
}
