{
    "_id": "fX5FybM93HIQRRd1",
    "data": {
        "actionCategory": {
            "value": ""
        },
        "actionType": {
            "value": "reaction"
        },
        "actions": {
            "value": null
        },
        "description": {
            "value": "<p><strong>Frequency</strong> once per day</p>\n<p><strong>Trigger</strong> A creature within 30 feet you can see would succeed at a save.</p>\n<hr />\n<p>You hiss a spiteful curse at the creature. The target must reroll the triggering saving throw and use the worse result.</p>"
        },
        "featType": {
            "value": "ancestry"
        },
        "level": {
            "value": 13
        },
        "prerequisites": {
            "value": []
        },
        "rules": [],
        "source": {
            "value": ""
        },
        "traits": {
            "custom": "",
            "rarity": {
                "value": "common"
            },
            "value": [
                "catfolk",
                "divination",
                "misfortune",
                "occult"
            ]
        }
    },
    "effects": [],
    "flags": {},
    "img": "systems/pf2e/icons/features/feats/feats.webp",
    "name": "Black Cat Curse",
    "type": "feat"
}
