{
    "_id": "DYUlMxh7TDgEh9xB",
    "data": {
        "actionCategory": {
            "value": ""
        },
        "actionType": {
            "value": "passive"
        },
        "actions": {
            "value": null
        },
        "description": {
            "value": "<p>The brutality of your critical hits shakes your foes' confidence.</p>\n<p>Whenever your Strike is a critical hit and deals damage, the target is @Compendium[pf2e.conditionitems.Frightened]{Frightened 1}.</p>"
        },
        "featType": {
            "value": "class"
        },
        "level": {
            "value": 2
        },
        "location": "",
        "prerequisites": {
            "value": [
                {
                    "value": "ruffian racket"
                }
            ]
        },
        "rules": [
            {
                "key": "PF2E.RuleElement.Note",
                "outcome": [
                    "criticalSuccess"
                ],
                "selector": "damage",
                "text": "<p class='compact-text'>When you critically hit and deal damage, the target is @Compendium[pf2e.conditionitems.Frightened]{Frightened 1}</p>"
            }
        ],
        "source": {
            "value": ""
        },
        "traits": {
            "custom": "",
            "rarity": {
                "value": "common"
            },
            "value": [
                "rogue"
            ]
        }
    },
    "effects": [],
    "flags": {},
    "img": "systems/pf2e/icons/features/feats/feats.webp",
    "name": "Brutal Beating",
    "type": "feat"
}
