{
    "_id": "tSmd0cxq9wokSCh4",
    "data": {
        "actionCategory": {
            "value": ""
        },
        "actionType": {
            "value": "passive"
        },
        "actions": {
            "value": null
        },
        "description": {
            "value": "<p>The force of your deity's castigation strengthens your body so you can strike down the wicked.</p>\n<p>After you damage a fiend using a @Compendium[pf2e.spells-srd.Heal]{Heal} spell, your weapon or unarmed Strikes deal extra good damage to fiends equal to half the level of the heal spell until the end of your next turn. This is cumulative with any good damage the weapon already deals (such as from a holy rune).</p>"
        },
        "featType": {
            "value": "class"
        },
        "level": {
            "value": 10
        },
        "location": "",
        "prerequisites": {
            "value": [
                {
                    "value": "Holy Castigation"
                }
            ]
        },
        "rules": [],
        "source": {
            "value": ""
        },
        "traits": {
            "custom": "",
            "rarity": {
                "value": "common"
            },
            "value": [
                "cleric"
            ]
        }
    },
    "effects": [],
    "flags": {},
    "img": "systems/pf2e/icons/features/feats/feats.webp",
    "name": "Castigating Weapon",
    "type": "feat"
}
