{
    "_id": "ELdUj5ihdivlgb3H",
    "data": {
        "actionCategory": {
            "value": ""
        },
        "actionType": {
            "value": "passive"
        },
        "actions": {
            "value": null
        },
        "description": {
            "value": "<p><strong>Archetype</strong> @Compendium[pf2e.archetypes.Crystal Keeper]{Crystal Keeper}</p>\n<hr />\n<p>You can use Arcana, Occultism, Religion, or Society to Decipher Writing by meditating before a crystal, regardless of the type of writing. When you Decipher Writing and roll a critical failure, you get a failure instead, and when you Decipher Writing and roll a success, you get a critical success instead.</p>\n<p>Additionally, you gain resistance 10 to damage from hazards associated with crystals.</p>\n<p><strong>Special</strong> You can't select another dedication feat until you have gained two other feats from the crystal keeper archetype.</p>"
        },
        "featType": {
            "value": "archetype"
        },
        "level": {
            "value": 4
        },
        "prerequisites": {
            "value": [
                {
                    "value": "trained in Elven Lore or Society"
                }
            ]
        },
        "rules": [],
        "source": {
            "value": ""
        },
        "traits": {
            "custom": "",
            "rarity": {
                "value": "rare"
            },
            "value": [
                "archetype",
                "dedication"
            ]
        }
    },
    "effects": [],
    "flags": {},
    "img": "systems/pf2e/icons/features/feats/feats.webp",
    "name": "Crystal Keeper Dedication",
    "type": "feat"
}
