{
    "_id": "Ar6W97iun6yYI8Df",
    "data": {
        "actionCategory": {
            "value": ""
        },
        "actionType": {
            "value": "reaction"
        },
        "actions": {
            "value": null
        },
        "description": {
            "value": "<p><strong>Trigger</strong> A trap within your reach is triggered.</p>\n<hr />\n<p>You can jam the workings of a trap to delay its effects. Attempt a Thievery check to @Compendium[pf2e.actionspf2e.Disable Device]{Disable Device} on the trap; the DC to do so is increased by 5, and the effects are as follows.</p>\n<p><strong>Critical Success</strong> You prevent the trap from being triggered, or you delay the activation until the start or end of your next turn (your choice).</p>\n<p><strong>Success</strong> You prevent the trap from being triggered, or you delay the activation until the end of your next turn (whichever is worse for you; GM's choice).</p>\n<p><strong>Failure</strong> No effect.</p>\n<p><strong>Critical Failure</strong> You're @Compendium[pf2e.conditionitems.Flat-Footed]{Flat-Footed} until the start of your next turn.</p>"
        },
        "featType": {
            "value": "class"
        },
        "level": {
            "value": 8
        },
        "location": "",
        "prerequisites": {
            "value": []
        },
        "rules": [],
        "source": {
            "value": ""
        },
        "traits": {
            "custom": "",
            "rarity": {
                "value": "common"
            },
            "value": [
                "rogue"
            ]
        }
    },
    "effects": [],
    "flags": {},
    "img": "systems/pf2e/icons/features/feats/feats.webp",
    "name": "Delay Trap",
    "type": "feat"
}
