{
    "_id": "8cbSVw8RnVzy5USe",
    "data": {
        "actionCategory": {
            "value": ""
        },
        "actionType": {
            "value": "passive"
        },
        "actions": {
            "value": null
        },
        "description": {
            "value": "<p>Your muse whispers knowledge to you at all the right times.</p>\n<p>You gain the benefits of the @Compendium[pf2e.feats-srd.Automatic Knowledge]{Automatic Knowledge} skill feat with any skill you can use to @Compendium[pf2e.actionspf2e.Recall Knowledge (Lore)]{Recall Knowledge}. As per the special clause in the Automatic Knowledge feat, you can still only use Automatic Knowledge once per round.</p>"
        },
        "featType": {
            "value": "class"
        },
        "level": {
            "value": 12
        },
        "prerequisites": {
            "value": [
                {
                    "value": "Assured Knowledge"
                }
            ]
        },
        "rules": [],
        "source": {
            "value": ""
        },
        "traits": {
            "custom": "",
            "rarity": {
                "value": "common"
            },
            "value": [
                "bard"
            ]
        }
    },
    "effects": [],
    "flags": {},
    "img": "systems/pf2e/icons/features/feats/feats.webp",
    "name": "Enigma's Knowledge",
    "type": "feat"
}
