{
    "_id": "DY6pNO3GzHeKSxmQ",
    "data": {
        "actionCategory": {
            "value": ""
        },
        "actionType": {
            "value": "passive"
        },
        "actions": {
            "value": null
        },
        "description": {
            "value": "<p>Finishing a foe maintains your swagger. You gain @Compendium[pf2e.classfeatures.Panache]{Panache} if your finisher brings the target to 0 HP (or brings the highest-level target to 0 HP, if your finisher attacks multiple targets).</p>"
        },
        "featType": {
            "value": "class"
        },
        "level": {
            "value": 2
        },
        "prerequisites": {
            "value": []
        },
        "rules": [],
        "source": {
            "value": ""
        },
        "traits": {
            "custom": "",
            "rarity": {
                "value": "common"
            },
            "value": [
                "swashbuckler"
            ]
        }
    },
    "effects": [],
    "flags": {},
    "img": "systems/pf2e/icons/features/feats/feats.webp",
    "name": "Finishing Follow-through",
    "type": "feat"
}
