{
    "_id": "tVPxq2qYCcOqvIYZ",
    "data": {
        "actionCategory": {
            "value": ""
        },
        "actionType": {
            "value": "passive"
        },
        "actions": {
            "value": null
        },
        "description": {
            "value": "<p>You have unusual sensory abilities passed down from your chaotic forebears. You gain @Compendium[pf2e.ancestryfeatures.Low-Light Vision]{Low-Light Vision}. If you already have low-light vision, you gain @Compendium[pf2e.ancestryfeatures.Darkvision]{Darkvision} instead.</p>\n<hr />\n<p><strong>Special</strong> You can select this feat a second time to gain darkvision in addition to low-light vision.</p>"
        },
        "featType": {
            "value": "ancestry"
        },
        "level": {
            "value": 1
        },
        "location": "",
        "prerequisites": {
            "value": []
        },
        "rules": [],
        "source": {
            "value": ""
        },
        "traits": {
            "custom": "",
            "rarity": {
                "value": "common"
            },
            "value": [
                "ganzi"
            ]
        }
    },
    "effects": [],
    "flags": {},
    "img": "systems/pf2e/icons/features/feats/feats.webp",
    "name": "Ganzi Gaze",
    "type": "feat"
}
