{
    "_id": "jBHDVsTVOBeoMoO4",
    "data": {
        "actionCategory": {
            "value": ""
        },
        "actionType": {
            "value": "passive"
        },
        "actions": {
            "value": null
        },
        "description": {
            "value": "<p>You've continued to expand your compendium of tools to compile knowledge. You can cast @Compendium[pf2e.spells-srd.Comprehend Language]{Comprehend Language}, @Compendium[pf2e.spells-srd.Mindlink]{Mindlink}, and @Compendium[pf2e.spells-srd.Secret Page]{Secret Page} as innate occult spells, each once per day. When you cast <em>secret page</em>, it is automatically heightened to the same spell level as your cantrips from Magical Edification.</p>"
        },
        "featType": {
            "value": "archetype"
        },
        "level": {
            "value": 10
        },
        "prerequisites": {
            "value": [
                {
                    "value": "Magical Edification"
                }
            ]
        },
        "rules": [],
        "source": {
            "value": ""
        },
        "traits": {
            "custom": "",
            "rarity": {
                "value": "common"
            },
            "value": [
                "archetype"
            ]
        }
    },
    "effects": [],
    "flags": {},
    "img": "systems/pf2e/icons/features/feats/feats.webp",
    "name": "Greater Magical Edification",
    "type": "feat"
}
