{
    "_id": "4vu6P3cYoOOeUbLK",
    "data": {
        "actionCategory": {
            "value": ""
        },
        "actionType": {
            "value": "passive"
        },
        "actions": {
            "value": null
        },
        "description": {
            "value": "<p>You have an incredible ability to invest more magic items. Increase your limit on invested items from 10 to 12.</p>"
        },
        "featType": {
            "value": "general"
        },
        "level": {
            "value": 11
        },
        "location": "",
        "prerequisites": {
            "value": [
                {
                    "value": "Charisma 16"
                }
            ]
        },
        "rules": [
            {
                "key": "ActiveEffectLike",
                "mode": "upgrade",
                "path": "data.resources.investiture.max",
                "value": 12
            }
        ],
        "source": {
            "value": ""
        },
        "traits": {
            "custom": "",
            "rarity": {
                "value": "common"
            },
            "value": [
                "general"
            ]
        }
    },
    "effects": [],
    "flags": {},
    "img": "systems/pf2e/icons/features/feats/feats.webp",
    "name": "Incredible Investiture",
    "type": "feat"
}
