{
    "_id": "M41PGiFlLE2tByUL",
    "data": {
        "actionCategory": {
            "value": "interaction"
        },
        "actionType": {
            "value": "passive"
        },
        "actions": {
            "value": null
        },
        "description": {
            "value": "<p>You are adept at dodging roots, foliage, and other jungle obstacles. You ignore difficult terrain in forests and jungles. In addition, when you use the Acrobatics skill to Balance on narrow surfaces or uneven ground made of plant material, you aren't flat-footed, and when you roll a success at one of these Acrobatics checks, you get a critical success instead.</p>"
        },
        "featType": {
            "value": "ancestry"
        },
        "level": {
            "value": 1
        },
        "location": "",
        "prerequisites": {
            "value": []
        },
        "rules": [
            {
                "adjustment": {
                    "success": "one-degree-better"
                },
                "key": "PF2E.RuleElement.AdjustDegreeOfSuccess",
                "predicate": {
                    "all": [
                        "action:balance",
                        "terrain:plant"
                    ]
                },
                "selector": "acrobatics"
            },
            {
                "key": "PF2E.RuleElement.Note",
                "selector": "acrobatics",
                "text": "<p class='compact-text'><strong>{item|name}</strong> When you roll a success at an Acrobatics check to Balance on narrow surfaces or uneven ground made of plant material,  get a critical success instead.</p>"
            }
        ],
        "source": {
            "value": ""
        },
        "traits": {
            "custom": "",
            "rarity": {
                "value": "common"
            },
            "value": [
                "grippli"
            ]
        }
    },
    "effects": [],
    "flags": {},
    "img": "systems/pf2e/icons/default-icons/feats.webp",
    "name": "Jungle Strider",
    "type": "feat"
}
