{
    "_id": "KrYvJ5n06yHCipCZ",
    "data": {
        "actionCategory": {
            "value": ""
        },
        "actionType": {
            "value": "reaction"
        },
        "actions": {
            "value": null
        },
        "description": {
            "value": "<p><strong>Trigger</strong> You reduce an enemy to 0 Hit Points during a non-trivial combat encounter with spectators.</p>\n<hr />\n<p>You show off for the crowd. Attempt a Performance check; the DC is determined by the GM but is typically the standard DC for your level or the DC to @Compendium[pf2e.actionspf2e.Make an Impression]{Make an Impression} on the spectators, whichever is higher. On a success, choose one of the following benefits; on a critical success, choose two benefits:</p>\n<ul>\n<li>A number of temporary Hit Points equal to your character level; these last for 1 minute.</li>\n<li>A +1 circumstance bonus to AC until the end of your next turn.</li>\n<li>A +1 circumstance bonus to your next attack roll before the end of your next turn.</li>\n</ul>"
        },
        "featType": {
            "value": "archetype"
        },
        "level": {
            "value": 4
        },
        "prerequisites": {
            "value": [
                {
                    "value": "Gladiator Dedication"
                }
            ]
        },
        "rules": [],
        "source": {
            "value": ""
        },
        "traits": {
            "custom": "",
            "rarity": {
                "value": "common"
            },
            "value": [
                "archetype",
                "concentrate"
            ]
        }
    },
    "effects": [],
    "flags": {},
    "img": "systems/pf2e/icons/features/feats/feats.webp",
    "name": "Play To The Crowd",
    "type": "feat"
}
