{
    "_id": "i8MnyasCDo3j65Xd",
    "data": {
        "actionCategory": {
            "value": "defensive"
        },
        "actionType": {
            "value": "passive"
        },
        "actions": {
            "value": 1
        },
        "description": {
            "value": "<p><strong>Frequency</strong> once per turn</p>\n<hr />\n<p>You've replaced your heart with one made of animated quicksilver and living adamantine. You reduce your @Compendium[pf2e.conditionitems.Slowed]{Slowed} condition by 1. Alternatively, if you are not slowed, you are @Compendium[pf2e.conditionitems.Quickened]{Quickened 1} during your next turn, and can use your extra action to Stride or Strike.</p>"
        },
        "featType": {
            "value": "archetype"
        },
        "level": {
            "value": 10
        },
        "prerequisites": {
            "value": [
                {
                    "value": "Golem Grafter Dedication"
                }
            ]
        },
        "rules": [],
        "source": {
            "value": "Pathfinder #153: Life's Long Shadows"
        },
        "traits": {
            "custom": "",
            "rarity": {
                "value": "common"
            },
            "value": [
                "archetype"
            ]
        }
    },
    "effects": [],
    "flags": {},
    "img": "systems/pf2e/icons/features/feats/feats.webp",
    "name": "Quicken Heartbeat",
    "type": "feat"
}
