{
    "_id": "luKAFJAvdbAgEwV7",
    "data": {
        "actionCategory": {
            "value": ""
        },
        "actionType": {
            "value": "passive"
        },
        "actions": {
            "value": null
        },
        "description": {
            "value": "<p><strong>Archetype</strong> @Compendium[pf2e.archetypes.Runescarred]{Runescarred}</p>\n<p><strong>Access</strong> You are from the Saga Lands.</p>\n<hr />\n<p>Whether through blood (if you're Varisian, Shoanti, or New Thassilonian) or by exposure to rune magic, you have become runescarred, with visible, glowing runes on your body in the form of tattoos or scars. You might have possessed these marks before gaining the archetype, but you only truly became runescarred when you chose to study and tap into the runes' power. You become an expert in Arcana and you also become trained in Thassilon Lore, or an expert in Thassilon Lore if you were already trained in it.</p>\n<p>Choose one cantrip from the arcane list. One of the runes on your body corresponds to the chosen cantrip, and you can cast the chosen cantrip as an innate arcane spell.</p>\n<p><strong>Special</strong> You cannot select another dedication feat until you have gained two other feats from the runescarred archetype.</p>"
        },
        "featType": {
            "value": "archetype"
        },
        "level": {
            "value": 2
        },
        "location": "",
        "prerequisites": {
            "value": [
                {
                    "value": "trained in Arcana"
                }
            ]
        },
        "rules": [
            {
                "key": "PF2E.RuleElement.ActiveEffectLike",
                "mode": "upgrade",
                "path": "data.skills.arc.rank",
                "value": 2
            }
        ],
        "source": {
            "value": ""
        },
        "traits": {
            "custom": "",
            "rarity": {
                "value": "uncommon"
            },
            "value": [
                "archetype",
                "dedication"
            ]
        }
    },
    "effects": [],
    "flags": {},
    "img": "systems/pf2e/icons/features/feats/feats.webp",
    "name": "Runescarred Dedication",
    "type": "feat"
}
