{
    "_id": "hkMQGiTJCLVAWHy0",
    "data": {
        "actionCategory": {
            "value": ""
        },
        "actionType": {
            "value": "passive"
        },
        "actions": {
            "value": null
        },
        "description": {
            "value": "<p><strong>Access</strong> any surface dwarf ethnicity<br /></p>\n<hr />\n<p>Your interactions with other cultures on the surface have not only taught you about many other ancestries, but have also helped you realize the value of your own. You gain the trained proficiency rank in the Society skill (or another skill of your choice if you were already trained in Society), and you gain the @Compendium[pf2e.feats-srd.Additional Lore]{Additional Lore} skill feat for the Lore corresponding to your culture (for instance, Ouat Lore or Pahmet Lore).</p>"
        },
        "featType": {
            "value": "ancestry"
        },
        "level": {
            "value": 1
        },
        "location": "",
        "prerequisites": {
            "value": []
        },
        "rules": [],
        "source": {
            "value": ""
        },
        "traits": {
            "custom": "",
            "rarity": {
                "value": "uncommon"
            },
            "value": [
                "dwarf"
            ]
        }
    },
    "effects": [],
    "flags": {},
    "img": "systems/pf2e/icons/features/feats/feats.webp",
    "name": "Surface Culture",
    "type": "feat"
}
