{
    "_id": "zY6y802bOouMYYFV",
    "data": {
        "actionCategory": {
            "value": ""
        },
        "actionType": {
            "value": "passive"
        },
        "actions": {
            "value": null
        },
        "description": {
            "value": "<p>You have a particular affinity for leafy plants.</p>\n<p>Your patron grants you a leshy familiar. If you already had a familiar, this leshy replaces your previous familiar, as if your previous familiar had been slain.</p>\n<p>In addition, you gain the ability to see through leaves, vines, and other foliage. You don't take circumstance penalties to ranged spell attacks or Perception checks caused by foliage, and your targeted attacks don't require a flat check to succeed against a target @Compendium[pf2e.conditionitems.Concealed]{Concealed} only by such vegetation.</p>"
        },
        "featType": {
            "value": "class"
        },
        "level": {
            "value": 1
        },
        "prerequisites": {
            "value": []
        },
        "rules": [],
        "source": {
            "value": ""
        },
        "traits": {
            "custom": "",
            "rarity": {
                "value": "common"
            },
            "value": [
                "witch"
            ]
        }
    },
    "effects": [],
    "flags": {},
    "img": "systems/pf2e/icons/features/feats/feats.webp",
    "name": "Wortwitch",
    "type": "feat"
}
