{
    "_id": "hmShTfPOcTaKgbf4",
    "data": {
        "actionCategory": {
            "value": ""
        },
        "actionType": {
            "value": "passive"
        },
        "actions": {
            "value": null
        },
        "description": {
            "value": "<p>Ever watchful for weaknesses, you can quickly attack foes that leave an opening in their defenses. You gain the @Compendium[pf2e.feats-srd.Attack of Opportunity (Fighter)]{Attack of Opportunity (Fighter)} reaction.</p>"
        },
        "featType": {
            "value": "classfeature"
        },
        "level": {
            "value": 1
        },
        "location": "",
        "prerequisites": {
            "value": []
        },
        "rules": [],
        "source": {
            "value": ""
        },
        "traits": {
            "custom": "",
            "rarity": {
                "value": "common"
            },
            "value": [
                "fighter"
            ]
        }
    },
    "effects": [],
    "flags": {},
    "img": "systems/pf2e/icons/features/classes/attack-of-opportunity.webp",
    "name": "Attack of Opportunity",
    "type": "feat"
}
