{
    "_id": "6zo2PJGYoig7nFpR",
    "data": {
        "actionCategory": {
            "value": ""
        },
        "actionType": {
            "value": "passive"
        },
        "actions": {
            "value": null
        },
        "description": {
            "value": "<p>When using @Compendium[pf2e.classfeatures.Advanced Alchemy]{Advanced Alchemy} to make poisons during your daily preparations, you can spend one batch of @Compendium[pf2e.classfeatures.Infused Reagents]{reagents} to create three poisons in any combination, instead of just two of the same poison.</p>"
        },
        "featType": {
            "value": "classfeature"
        },
        "level": {
            "value": 5
        },
        "location": "",
        "prerequisites": {
            "value": []
        },
        "rules": [],
        "source": {
            "value": ""
        },
        "traits": {
            "custom": "",
            "rarity": {
                "value": "common"
            },
            "value": [
                "alchemist"
            ]
        }
    },
    "effects": [],
    "flags": {},
    "img": "systems/pf2e/icons/features/classes/field-discovery-chirurgeon.webp",
    "name": "Field Discovery (Toxicologist)",
    "type": "feat"
}
