{
    "_id": "NzXpEzcZAjuDTZjK",
    "data": {
        "ability": {
            "value": ""
        },
        "area": {
            "areaType": "",
            "value": null
        },
        "areasize": {
            "value": ""
        },
        "category": {
            "value": "spell"
        },
        "components": {
            "material": false,
            "somatic": true,
            "verbal": true
        },
        "cost": {
            "value": ""
        },
        "damage": {
            "value": {}
        },
        "description": {
            "value": "<p>You harness your mastery of primal forces to reshape your body into a Medium flying animal battle form. When you cast this spell, choose bat, bird, pterosaur, or wasp. You can decide the specific type of animal (such as an owl or eagle for bird), but this has no effect on the form's Size or statistics. While in this form, you gain the animal trait. You can Dismiss the spell.</p>\n<p>You gain the following statistics and abilities regardless of which battle form you choose:</p>\n<ul>\n<li>AC = 18 + your level. Ignore your armor's check penalty and Speed reduction.</li>\n<li>5 temporary Hit Points.</li>\n<li>Low-light vision.</li>\n<li>One or more unarmed melee attacks specific to the battle form you choose, which are the only attacks you can use. You're trained with them. Your attack modifier is +16, and your damage bonus is +5. These attacks are Dexterity based (for the purpose of the @Compendium[pf2e.conditionitems.Clumsy]{Clumsy} condition, for example). If your attack modifier for Dexterity-based unarmed attacks is higher, you can use it instead.</li>\n<li>Acrobatics modifier of +16, unless your own modifier is higher.</li>\n</ul>\n<p>You also gain specific abilities based on the form you choose:</p>\n<ul>\n<li><strong>@Compendium[pf2e.spell-effects.Spell Effect: Aerial Form (Bat)]{Bat}</strong>\n<ul>\n<li>Speed 20 feet, fly Speed 30 feet; precise echolocation 40 feet;</li>\n<li><strong>Melee</strong> <span class=\"pf2-icon\">a</span> fangs, <strong>Damage</strong> 2d8 piercing;</li>\n<li><strong>Melee</strong> <span class=\"pf2-icon\">a</span> wing (agile), <strong>Damage</strong> 2d6 bludgeoning.</li>\n</ul>\n</li>\n<li><strong>@Compendium[pf2e.spell-effects.Spell Effect: Aerial Form (Bird)]{Bird}</strong>\n<ul>\n<li>Speed 10 feet, fly Speed 50 feet;</li>\n<li><strong>Melee</strong> <span class=\"pf2-icon\">a</span> beak, <strong>Damage</strong> 2d8 piercing;</li>\n<li><strong>Melee</strong> <span class=\"pf2-icon\">a</span> talon (agile), <strong>Damage</strong> 1d10 slashing.</li>\n</ul>\n</li>\n<li><strong>@Compendium[pf2e.spell-effects.Spell Effect: Aerial Form (Pterosaur)]{Pterosaur}</strong>\n<ul>\n<li>Speed 10 feet, fly Speed 40 feet; imprecise scent 30 feet;</li>\n<li><strong>Melee</strong> <span class=\"pf2-icon\">a</span> beak, <strong>Damage</strong> 3d6 piercing.</li>\n</ul>\n</li>\n<li><strong>@Compendium[pf2e.spell-effects.Spell Effect: Aerial Form (Wasp)]{Wasp}</strong>\n<ul>\n<li>Speed 20 feet, fly Speed 40 feet;</li>\n<li><strong>Melee</strong> <span class=\"pf2-icon\">a</span> stinger, <strong>Damage</strong> 1d8 piercing plus [[/r 1d6 #persistent poison]] @Compendium[pf2e.conditionitems.Persistent Damage]{Persistent Poison Damage}.</li>\n</ul>\n</li>\n</ul>\n<hr />\n<p><strong>Heightened (5th)</strong> Your battle form is Large and your fly Speed gains a +10-foot status bonus. You must have enough space to expand into or the spell is lost. You instead gain 10 temporary HP, attack modifier +18, damage bonus +8, and Acrobatics +20.</p>\n<p><strong>Heightened (6th)</strong> Your battle form is Huge, your fly Speed gains a +15-foot status bonus, and your attacks have 10-foot reach. You must have enough space to expand into or the spell is lost. You instead gain AC = 21 + your level, 15 temporary HP, attack modifier +21, damage bonus +4 and double damage dice (including Persistent Damage), and Acrobatics +23.</p>"
        },
        "duration": {
            "value": "1 minute"
        },
        "hasCounteractCheck": {
            "value": false
        },
        "level": {
            "value": 4
        },
        "location": {
            "value": ""
        },
        "materials": {
            "value": ""
        },
        "prepared": {
            "value": ""
        },
        "primarycheck": {
            "value": ""
        },
        "range": {
            "value": ""
        },
        "rules": [],
        "save": {
            "basic": "",
            "value": ""
        },
        "school": {
            "value": "transmutation"
        },
        "secondarycasters": {
            "value": ""
        },
        "secondarycheck": {
            "value": ""
        },
        "source": {
            "value": ""
        },
        "spellType": {
            "value": "utility"
        },
        "sustained": {
            "value": false
        },
        "target": {
            "value": ""
        },
        "time": {
            "value": "2"
        },
        "traditions": {
            "value": [
                "arcane",
                "primal"
            ]
        },
        "traits": {
            "custom": "",
            "rarity": {
                "value": "common"
            },
            "value": [
                "polymorph"
            ]
        }
    },
    "effects": [],
    "flags": {},
    "img": "systems/pf2e/icons/spells/aerial-form.webp",
    "name": "Aerial Form",
    "type": "spell"
}
