{
    "_id": "g1eY1vN44mgluE33",
    "data": {
        "ability": {
            "value": ""
        },
        "area": {
            "areaType": "",
            "value": ""
        },
        "areasize": {
            "value": ""
        },
        "autoHeightenLevel": {
            "value": null
        },
        "category": {
            "value": "focus"
        },
        "components": {
            "material": false,
            "somatic": true,
            "verbal": true
        },
        "cost": {
            "value": ""
        },
        "damage": {
            "value": {
                "0": {
                    "type": {
                        "categories": [],
                        "value": "electricity"
                    },
                    "value": "1d6"
                }
            }
        },
        "description": {
            "value": "<p>You fire a javelin of electricity that leaves a charged field around its target. Make a spell attack roll. The javelin deals 1d6 electricity damage and [[/r 1 #persistent electricity]] @Compendium[pf2e.conditionitems.Persistent Damage]{Persistent Electricity Damage}.</p>\n<p>As long as the target is taking @Compendium[pf2e.conditionitems.Persistent Damage]{Persistent Damage} from this spell, creatures gain a +1 status bonus to attack rolls with metal weapons or electricity effects against the target, and the target takes a -1 status penalty to saves against electricity effects.</p>\n<hr />\n<p><strong>Critical Success</strong> The javelin deals double damage, both initial and persistent.</p>\n<p><strong>Success</strong> The javelin deals full damage.</p>\n<hr />\n<p><strong>Heightened (+1)</strong> The initial damage increases by 1d6, and the Persistent Damage increases by 1.</p>"
        },
        "duration": {
            "value": ""
        },
        "hasCounteractCheck": {
            "value": false
        },
        "level": {
            "value": 1
        },
        "location": {
            "value": ""
        },
        "materials": {
            "value": ""
        },
        "prepared": {
            "value": ""
        },
        "primarycheck": {
            "value": ""
        },
        "range": {
            "value": "60 feet"
        },
        "rules": [
            {
                "key": "ActiveEffectLike",
                "mode": "override",
                "path": "flags.pf2e.rollOptions.all.electricity-domain",
                "priority": 10,
                "value": true
            }
        ],
        "save": {
            "basic": "",
            "value": ""
        },
        "scaling": {
            "damage": {
                "0": "1d6"
            },
            "interval": 1
        },
        "school": {
            "value": "evocation"
        },
        "secondarycasters": {
            "value": ""
        },
        "secondarycheck": {
            "value": ""
        },
        "source": {
            "value": ""
        },
        "spellType": {
            "value": "attack"
        },
        "sustained": {
            "value": false
        },
        "target": {
            "value": "1 or more creatures"
        },
        "time": {
            "value": "2"
        },
        "traditions": {
            "custom": "",
            "value": []
        },
        "traits": {
            "custom": "",
            "rarity": {
                "value": "uncommon"
            },
            "value": [
                "attack",
                "cleric",
                "electricity"
            ]
        }
    },
    "effects": [],
    "flags": {},
    "img": "systems/pf2e/icons/spells/charged-javelin.webp",
    "name": "Charged Javelin",
    "type": "spell"
}
