{
    "_id": "h7RtKSKGViNtD5o4",
    "data": {
        "ability": {
            "value": ""
        },
        "area": {
            "areaType": "burst",
            "value": "10"
        },
        "autoHeightenLevel": {
            "value": null
        },
        "category": {
            "value": "spell"
        },
        "components": {
            "focus": false,
            "material": false,
            "somatic": true,
            "verbal": true
        },
        "cost": {
            "value": ""
        },
        "damage": {
            "value": {}
        },
        "description": {
            "value": "<p>Razor sharp coral growths erupt from the ground, transforming the landscape into a dangerous coral reef. You can create a third nonoverlapping burst if the centers of all three bursts are underwater. Creatures in the area when the spell is cast take 6d6 piercing damage and must attempt a basic Reflex save. A creature that critically fails its saving throw also takes [[/r 1d6 #persistent bleed]] @Compendium[pf2e.conditionitems.Persistent Damage]{Persistent Bleed Damage}. The area becomes difficult terrain and hazardous terrain. A creature that moves through the area takes 3 piercing damage for every square of that area it moves into.</p>\n<hr />\n<p><strong>Heightened (+2)</strong> The initial piercing damage increases by 3d6, and the hazardous terrain damage increases by 1</p>"
        },
        "duration": {
            "value": "1 minute"
        },
        "hasCounteractCheck": {
            "value": false
        },
        "level": {
            "value": 4
        },
        "location": {
            "value": ""
        },
        "materials": {
            "value": ""
        },
        "prepared": {
            "value": ""
        },
        "range": {
            "value": "120 feet"
        },
        "rules": [],
        "save": {
            "basic": "basic",
            "value": "reflex"
        },
        "scaling": {
            "damage": {
                "0": "3d6"
            },
            "interval": 2
        },
        "school": {
            "value": "conjuration"
        },
        "source": {
            "value": ""
        },
        "spellType": {
            "value": "save"
        },
        "sustained": {
            "value": false
        },
        "target": {
            "value": ""
        },
        "time": {
            "value": "3"
        },
        "traditions": {
            "custom": "",
            "value": [
                "arcane",
                "primal"
            ]
        },
        "traits": {
            "custom": "",
            "rarity": {
                "value": "common"
            },
            "value": []
        }
    },
    "effects": [],
    "flags": {},
    "img": "systems/pf2e/icons/default-icons/spell.svg",
    "name": "Coral Eruption",
    "type": "spell"
}
