{
    "_id": "NyxQAazFBdBAqZGX",
    "data": {
        "ability": {
            "value": ""
        },
        "area": {
            "areaType": "cone",
            "value": "30"
        },
        "autoHeightenLevel": {
            "value": null
        },
        "category": {
            "value": "spell"
        },
        "components": {
            "focus": false,
            "material": false,
            "somatic": false,
            "verbal": false
        },
        "cost": {
            "value": ""
        },
        "damage": {
            "value": {}
        },
        "description": {
            "value": "<p>You draw elemental power from your surroundings, and combining it with your own magical energy, unleash a wave of utter destruction and swirling colors that deals 1d6 fire damage and 3d6 bludgeoning damage with a basic Reflex save. The number of actions you spend when Casting this Spell determines the area and other parameters.</p>\n<p><span class=\"pf2-icon\">2</span> <strong>(somatic, verbal)</strong> The spell is a 30-foot cone.</p>\n<p><span class=\"pf2-icon\">3</span> <strong>(material, somatic, verbal)</strong> The spell is a 30-foot cone. On a failed saving throw, creatures are pushed 5 feet away from you, and on a critical failure they are pushed 10 feet away and are knocked prone.</p>\n<p><strong>Two Rounds</strong> If you spend 3 actions Casting the Spell, you can avoid finishing the spell and spend another 3 actions on your next turn to empower the spell even further. If you do, the spell is as 3 actions, but the area is a <span data-pf2-effect-area=\"cone\" data-pf2-distance=\"60\">60-foot cone</span>, and for 1 round, the elements linger in the cone, racing off into the distance and making approaching you difficult, with the effects of gust of wind.</p>\n<hr />\n<p><strong>Heightened (+2)</strong> The damage increases by 2d6, and the distance that enemies are pushed back if you spent 3 actions or 2 rounds increases by 5 feet on a failed save and 10 feet on a critical failure.</p>"
        },
        "duration": {
            "value": ""
        },
        "hasCounteractCheck": {
            "value": false
        },
        "level": {
            "value": 3
        },
        "location": {
            "value": ""
        },
        "materials": {
            "value": ""
        },
        "range": {
            "value": ""
        },
        "rules": [],
        "save": {
            "basic": "basic",
            "value": "reflex"
        },
        "scaling": {
            "damage": {
                "0": "2d6"
            },
            "interval": 2
        },
        "school": {
            "value": "evocation"
        },
        "source": {
            "value": ""
        },
        "spellType": {
            "value": "save"
        },
        "sustained": {
            "value": false
        },
        "target": {
            "value": ""
        },
        "time": {
            "value": "2 actions to 2 rounds"
        },
        "traditions": {
            "custom": "",
            "value": [
                "arcane",
                "primal"
            ]
        },
        "traits": {
            "custom": "",
            "rarity": {
                "value": "common"
            },
            "value": [
                "air",
                "earth",
                "fire",
                "water"
            ]
        }
    },
    "effects": [],
    "flags": {},
    "img": "systems/pf2e/icons/default-icons/spell.svg",
    "name": "Elemental Annihilation Wave",
    "type": "spell"
}
