{
    "_id": "8THDHP0UC7SgOYYF",
    "data": {
        "ability": {
            "value": ""
        },
        "area": {
            "areaType": "",
            "value": ""
        },
        "autoHeightenLevel": {
            "value": null
        },
        "category": {
            "value": "spell"
        },
        "components": {
            "focus": false,
            "material": false,
            "somatic": true,
            "verbal": true
        },
        "cost": {
            "value": ""
        },
        "damage": {
            "value": {}
        },
        "description": {
            "value": "<p>You briefly glimpse cause and effect, putting into motion a chain of events that will visit doom on your enemy at some point in the future, though you’re not quite sure when or how the doom will occur. Some kind of strange accident occurs [[/br 1d4 #rounds]]{1d4 rounds} later, dealing [[/r 55]] damage to the creature, with a basic Fortitude save. This happens regardless of where the target is located at the time, even if it travels to another plane. The GM should roll to determine when the damage occurs secretly and determine the form of the accident as well as the type of damage it deals; generally, the accident should be one that deals physical damage of some type (for instance, a tree branch might fall on the foe and deal bludgeoning damage, or a window might break and fling sharp slashing glass at them), though other damage types might be<br />appropriate in more unusual environments.</p>\n<hr />\n<p><strong>Heightened (+1)</strong> The damage increases by 10.</p>"
        },
        "duration": {
            "value": ""
        },
        "hasCounteractCheck": {
            "value": false
        },
        "level": {
            "value": 5
        },
        "location": {
            "value": ""
        },
        "materials": {
            "value": ""
        },
        "range": {
            "value": "60 feet"
        },
        "rules": [],
        "save": {
            "basic": "basic",
            "value": "fortitude"
        },
        "scaling": {
            "damage": {},
            "interval": 0
        },
        "school": {
            "value": "divination"
        },
        "source": {
            "value": ""
        },
        "spellType": {
            "value": "save"
        },
        "sustained": {
            "value": false
        },
        "target": {
            "value": "1 creature"
        },
        "time": {
            "value": "2"
        },
        "traditions": {
            "custom": "",
            "value": [
                "divine",
                "occult"
            ]
        },
        "traits": {
            "custom": "",
            "rarity": {
                "value": "common"
            },
            "value": [
                "curse",
                "prediction"
            ]
        }
    },
    "effects": [],
    "flags": {},
    "img": "systems/pf2e/icons/default-icons/spell.svg",
    "name": "Inevitable Disaster",
    "type": "spell"
}
