{
    "_id": "MVrxZarUTnJxAUN8",
    "data": {
        "ability": {
            "value": ""
        },
        "area": {
            "areaType": "",
            "value": null
        },
        "areasize": {
            "value": ""
        },
        "category": {
            "value": "spell"
        },
        "components": {
            "material": false,
            "somatic": true,
            "verbal": true
        },
        "cost": {
            "value": ""
        },
        "damage": {
            "value": {}
        },
        "description": {
            "value": "<p>You use magical chains, vines, or other tethers to bind your target to you. The creature can still try to @Compendium[pf2e.actionspf2e.Escape]{Escape} and it or others can break the tethers by attacking them (the tethers have AC 15 and 10 Hit Points). You must stay within 30 feet of the target while it is tethered; moving more than 30 feet away from your target ends the spell. The target must attempt a Reflex save.</p>\n<hr />\n<p><strong>Critical Success</strong> The target is unaffected.</p>\n<p><strong>Success</strong> The target takes a -5-foot circumstance penalty to its Speed as long as it is within 30 feet of you.</p>\n<p><strong>Failure</strong> The target takes a -10-foot circumstance penalty to its Speed and cannot move more than 30 feet away from you until it Escapes or the spell ends.</p>\n<p><strong>Critical Failure</strong> The target is @Compendium[pf2e.conditionitems.Immobilized]{Immobilized} until it Escapes or the spell ends.</p>\n<hr />\n<p><strong>Heightened (+1)</strong> The tethers' AC increases by 3 and their Hit Points increase by 10.</p>"
        },
        "duration": {
            "value": "1 minute or until dismissed"
        },
        "hasCounteractCheck": {
            "value": false
        },
        "level": {
            "value": 1
        },
        "location": {
            "value": ""
        },
        "materials": {
            "value": ""
        },
        "prepared": {
            "value": ""
        },
        "primarycheck": {
            "value": ""
        },
        "range": {
            "value": "30 feet"
        },
        "rules": [],
        "save": {
            "basic": "",
            "value": "reflex"
        },
        "school": {
            "value": "abjuration"
        },
        "secondarycasters": {
            "value": ""
        },
        "secondarycheck": {
            "value": ""
        },
        "source": {
            "value": ""
        },
        "spellType": {
            "value": "save"
        },
        "sustained": {
            "value": false
        },
        "target": {
            "value": "1 creature"
        },
        "time": {
            "value": "2"
        },
        "traditions": {
            "custom": "",
            "value": [
                "arcane",
                "primal"
            ]
        },
        "traits": {
            "custom": "",
            "rarity": {
                "value": "common"
            },
            "value": []
        }
    },
    "effects": [],
    "flags": {},
    "img": "systems/pf2e/icons/spells/tether.webp",
    "name": "Tether",
    "type": "spell"
}
