{
    "_id": "MNiT0dHol5fEcKlz",
    "data": {
        "ability": {
            "value": ""
        },
        "area": {
            "value": ""
        },
        "areasize": {
            "value": ""
        },
        "category": {
            "value": "spell"
        },
        "components": {
            "material": false,
            "somatic": false,
            "verbal": false
        },
        "cost": {
            "value": ""
        },
        "damage": {
            "value": {}
        },
        "description": {
            "value": "<p>This spell allows you to change between three versions of yourself of different ages: a maiden (young adult), a mother (adult), or a matriarch (elderly). Choose one when you @Compendium[pf2e.actionspf2e.Cast a Spell]{Cast the Spell}. While the spell lasts, you can change the age to any of the three or to your natural age with a single action, which has the concentrate trait. Your form always looks like you regardless of the age, and creatures who know you still recognize you and can tell your age is different.</p>\n<p><em>Threefold aspect</em> alters your physical appearance and personality to present an authentic version of yourself at various ages. This grants you a +4 status bonus to Deception checks to pass as the chosen age, and you can add your level as a proficiency bonus to these checks even if you're untrained. Furthermore, unless a creature specifically uses a @Compendium[pf2e.actionspf2e.Seek]{Seek} action or otherwise carefully examines you, it doesn't get a chance to notice that you aren't at your true age. You can @Compendium[pf2e.actionspf2e.Dismiss]{Dismiss} this spell.</p>"
        },
        "duration": {
            "value": "until the next time you make your daily preparations"
        },
        "hasCounteractCheck": {
            "value": false
        },
        "level": {
            "value": 3
        },
        "location": {
            "value": ""
        },
        "materials": {
            "value": ""
        },
        "prepared": {
            "value": false
        },
        "primarycheck": {
            "value": ""
        },
        "range": {
            "value": ""
        },
        "rules": [],
        "save": {
            "basic": "",
            "value": ""
        },
        "school": {
            "value": "transmutation"
        },
        "secondarycasters": {
            "value": ""
        },
        "secondarycheck": {
            "value": ""
        },
        "source": {
            "value": ""
        },
        "spellType": {
            "value": "utility"
        },
        "sustained": {
            "value": false
        },
        "target": {
            "value": "Self"
        },
        "time": {
            "value": "1 minute"
        },
        "traditions": {
            "value": [
                "occult",
                "primal"
            ]
        },
        "traits": {
            "custom": "",
            "rarity": {
                "value": "common"
            },
            "value": [
                "polymorph"
            ]
        }
    },
    "effects": [],
    "flags": {},
    "img": "systems/pf2e/icons/spells/threefold-aspect.webp",
    "name": "Threefold Aspect",
    "type": "spell"
}
