{
    "_id": "CtrZFI3RV0yPNzTv",
    "data": {
        "description": {
            "value": "<p>You are distracted and takes a -3 status penalty to Perception and Will saves for 1 minute.</p>\n<p>You can end the effect early with a retort to your Bon Mot. This can either be a single action that has the concentrate trait or an appropriate skill action to frame their retort. The GM determines which skill actions qualify, though they must take at least 1 action. Typically, the retort needs to use a linguistic Charisma-based skill action.</p>"
        },
        "duration": {
            "expiry": "turn-start",
            "sustained": false,
            "unit": "minutes",
            "value": 1
        },
        "level": {
            "value": 1
        },
        "rules": [
            {
                "key": "PF2E.RuleElement.FlatModifier",
                "selector": "will",
                "type": "status",
                "value": -3
            },
            {
                "key": "PF2E.RuleElement.FlatModifier",
                "selector": "perception",
                "type": "status",
                "value": -3
            }
        ],
        "source": {
            "value": ""
        },
        "start": {
            "initiative": null,
            "value": 0
        },
        "target": null,
        "tokenIcon": {
            "show": true
        },
        "traits": {
            "custom": "",
            "rarity": {
                "value": "common"
            },
            "value": []
        }
    },
    "effects": [],
    "flags": {},
    "img": "systems/pf2e/icons/default-icons/effect.svg",
    "name": "Effect: Bon Mot (Critical Success)",
    "type": "effect"
}
