{
    "_id": "aWOvmdaTK1jS3H72",
    "data": {
        "description": {
            "value": "<p>Granted by @Compendium[pf2e.feats-srd.Lost in the Crowd]{Lost in the Crowd}</p>\n<p>You've learned how to move as one with crowds and hide among them, vanishing into a busy street in the blink of an eye. You move at full Speed in crowds and can use cover from crowds to Hide and Sneak, gaining a +2 circumstance bonus on your Stealth checks when in a crowd of at least 10 creatures.</p>"
        },
        "duration": {
            "expiry": "turn-start",
            "sustained": false,
            "unit": "unlimited",
            "value": -1
        },
        "level": {
            "value": 1
        },
        "rules": [
            {
                "key": "PF2E.RuleElement.FlatModifier",
                "selector": "stealth",
                "type": "circumstance",
                "value": 2
            }
        ],
        "source": {
            "value": "Lost Omens World Guide"
        },
        "start": {
            "initiative": null,
            "value": 0
        },
        "target": null,
        "tokenIcon": {
            "show": true
        },
        "traits": {
            "custom": "",
            "rarity": {
                "value": "common"
            },
            "value": []
        }
    },
    "effects": [],
    "flags": {},
    "img": "systems/pf2e/icons/default-icons/effect.svg",
    "name": "Effect: Lost in the Crowd (10 Creatures)",
    "type": "effect"
}
