{
    "_id": "iPInBeC8feDsmP2e",
    "data": {
        "attributes": {
            "ac": {
                "value": 15
            },
            "hardness": 0,
            "hasHealth": true,
            "hp": {
                "details": "",
                "max": 16,
                "temp": 0,
                "value": 16
            },
            "stealth": {
                "details": "",
                "value": 6
            }
        },
        "creatureType": "",
        "details": {
            "description": "<p>Gray mold covers a 10-foot by 25-foot section of the deck.</p>",
            "disable": "<p><span data-pf2-check=\"survival\" data-pf2-traits=\"poison,environmental,mechanical\" data-pf2-label=\"Neutralize Moldy Deck DC\" data-pf2-dc=\"13\" data-pf2-show-dc=\"gm\">Survival</span> to remove or neutralize the mold without disturbing it.</p>",
            "isComplex": false,
            "level": {
                "value": 0
            },
            "reset": "",
            "routine": ""
        },
        "saves": {
            "fortitude": {
                "saveDetail": "",
                "value": 9
            },
            "reflex": {
                "saveDetail": "",
                "value": 1
            },
            "will": {
                "saveDetail": "",
                "value": 0
            }
        },
        "source": {
            "value": "Pathfinder Society Quest #3: Grehunde's Gorget"
        },
        "statusEffects": [],
        "traits": {
            "ci": [],
            "di": {
                "custom": "",
                "selected": {},
                "value": [
                    "critical-hits",
                    "object-immunities",
                    "precision"
                ]
            },
            "dr": [],
            "dv": [],
            "rarity": {
                "value": "common"
            },
            "size": {
                "value": "med"
            },
            "traits": {
                "custom": "",
                "value": [
                    "environmental",
                    "mechanical",
                    "poison"
                ]
            }
        }
    },
    "effects": [],
    "flags": {},
    "img": "systems/pf2e/icons/default-icons/hazard.svg",
    "items": [
        {
            "_id": "jA7FdgH8PNNztD2N",
            "data": {
                "actionCategory": {
                    "value": "offensive"
                },
                "actionType": {
                    "value": "reaction"
                },
                "actions": {
                    "value": null
                },
                "description": {
                    "value": "<p data-visibility=\"gm\"><strong>Trigger</strong> A creature moves into the mold's space or damages the mold. The mold can't use this reaction if the damage was fire or acid damage;</p>\n<p><strong>Effect</strong> The triggering creature and all creatures within the gray mold's area are exposed to gray mold.</p>"
                },
                "requirements": {
                    "value": ""
                },
                "rules": [],
                "slug": null,
                "source": {
                    "value": ""
                },
                "traits": {
                    "custom": "",
                    "rarity": {
                        "value": "common"
                    },
                    "value": []
                },
                "trigger": {
                    "value": ""
                },
                "weapon": {
                    "value": ""
                }
            },
            "effects": [],
            "flags": {},
            "img": "systems/pf2e/icons/actions/Reaction.webp",
            "name": "Grey Mold Dustup",
            "sort": 0,
            "type": "action"
        },
        {
            "_id": "I6RCMHY9Hd2Sp5bO",
            "data": {
                "actionCategory": {
                    "value": "offensive"
                },
                "actionType": {
                    "value": "passive"
                },
                "actions": {
                    "value": null
                },
                "description": {
                    "value": "<p data-visibility=\"gm\">Any clumsy condition from the gray mold persists after the poison's duration ends.</p>\n<p><strong>Saving Throw</strong> <span data-pf2-check=\"fortitude\" data-pf2-traits=\"poison,inhaled\" data-pf2-label=\"Grey Mold DC\" data-pf2-dc=\"15\" data-pf2-show-dc=\"gm\">Fortitude</span></p>\n<div data-visibility=\"gm\">\n<p><strong>Maximum Duration</strong> 3 rounds;</p>\n<p><strong>Stage 1</strong> [[/r 1d4 #poison]]{1d4 poison damage} (1 round);</p>\n<p><strong>Stage 2</strong> [[/r 1d4 #poison]]{1d4 poison damage} and @Compendium[pf2e.conditionitems.Clumsy]{Clumsy 1} (1 round);</p>\n<p><strong>Stage 3</strong> [[/r 1d4 #poison]]{1d4 poison damage} and @Compendium[pf2e.conditionitems.Clumsy]{Clumsy 2} (1 round)</p>\n</div>"
                },
                "requirements": {
                    "value": ""
                },
                "rules": [],
                "slug": null,
                "source": {
                    "value": ""
                },
                "traits": {
                    "custom": "",
                    "rarity": {
                        "value": "common"
                    },
                    "value": [
                        "inhaled",
                        "poison"
                    ]
                },
                "trigger": {
                    "value": ""
                },
                "weapon": {
                    "value": ""
                }
            },
            "effects": [],
            "flags": {},
            "img": "systems/pf2e/icons/actions/Passive.webp",
            "name": "Grey Mold",
            "sort": 0,
            "type": "action"
        }
    ],
    "name": "Moldy Deck",
    "token": {
        "disposition": 0,
        "height": 1,
        "img": "systems/pf2e/icons/default-icons/hazard.svg",
        "name": "Moldy Deck",
        "width": 1
    },
    "type": "hazard"
}
