{
    "_id": "NeFSJTGROSgGIKNd",
    "data": {
        "attributes": {
            "ac": {
                "value": 15
            },
            "hardness": 6,
            "hasHealth": true,
            "hp": {
                "details": "",
                "max": 4,
                "temp": 0,
                "tempmax": 0,
                "value": 4
            },
            "stealth": {
                "details": "",
                "value": 5
            }
        },
        "creatureType": "",
        "customModifiers": {},
        "details": {
            "description": "A ceramic urn containing a coiled viper tips and shatters when a tripwire is pulled.",
            "disable": "DC 15 Thievery (trained) to stabilize the urn, or DC 15 Athletics to carefully lower the heavy urn.",
            "isComplex": false,
            "level": {
                "value": 1
            },
            "reset": "",
            "routine": ""
        },
        "saves": {
            "fortitude": {
                "saveDetail": "",
                "value": 8
            },
            "reflex": {
                "saveDetail": "",
                "value": 5
            },
            "will": {
                "saveDetail": "",
                "value": 0
            }
        },
        "source": {
            "value": "Pathfinder Adventure: Troubles in Otari"
        },
        "statusEffects": [],
        "traits": {
            "ci": [],
            "di": {
                "custom": "sneak attack",
                "selected": {},
                "value": [
                    "critical-hits"
                ]
            },
            "dr": [],
            "dv": [],
            "rarity": {
                "value": "uncommon"
            },
            "size": {
                "value": "med"
            },
            "traits": {
                "custom": "",
                "value": [
                    "mechanical"
                ]
            }
        }
    },
    "effects": [],
    "flags": {},
    "img": "systems/pf2e/icons/default-icons/hazard.svg",
    "items": [
        {
            "_id": "dwvQyKJ9gUWC4S3f",
            "data": {
                "actionCategory": {
                    "value": ""
                },
                "actionType": {
                    "value": "reaction"
                },
                "actions": {
                    "value": null
                },
                "description": {
                    "value": "<p>When someone pulls the trip wire, the urn smashes against a creature in the doorway, making a shattering urn Strike against that creature, then releases a viper into the square that contained the trap. The viper attacks any non-plant creature it detects.</p>"
                },
                "requirements": {
                    "value": ""
                },
                "rules": [],
                "slug": null,
                "source": {
                    "value": ""
                },
                "traits": {
                    "custom": "",
                    "rarity": {
                        "value": "common"
                    },
                    "value": []
                },
                "trigger": {
                    "value": ""
                },
                "weapon": {
                    "value": ""
                }
            },
            "effects": [],
            "flags": {},
            "img": "systems/pf2e/icons/actions/Reaction.webp",
            "name": "Topple",
            "sort": 100000,
            "type": "action"
        },
        {
            "_id": "0SzWuQBdiVOEj4WC",
            "data": {
                "attack": {
                    "value": ""
                },
                "attackEffects": {
                    "value": []
                },
                "bonus": {
                    "value": 12
                },
                "damageRolls": {
                    "gv20dhv8z48yakj4o79cyf": {
                        "damage": "2d6+5",
                        "damageType": "slashing"
                    }
                },
                "description": {
                    "value": ""
                },
                "rules": [],
                "slug": null,
                "source": {
                    "value": ""
                },
                "traits": {
                    "custom": "",
                    "rarity": {
                        "value": "common"
                    },
                    "value": [
                        "deadly-d10"
                    ]
                },
                "weaponType": {
                    "value": "melee"
                }
            },
            "effects": [],
            "flags": {},
            "img": "systems/pf2e/icons/default-icons/melee.svg",
            "name": "Shattering Urn",
            "sort": 200000,
            "type": "melee"
        }
    ],
    "name": "Viper Urn",
    "token": {
        "disposition": 0,
        "height": 1,
        "img": "systems/pf2e/icons/default-icons/hazard.svg",
        "name": "Viper Urn",
        "width": 1
    },
    "type": "hazard"
}
